data/2112220046.csv

ProID,Info,,time,Value,
GenTime,2021-12-22 20:44:33,,0.0,-8.8,
Record Length,87500 Points,,8.0E-5,-8.0,
Sample Interval,8.0E-5 s,,1.6E-4,-7.2000003,
Trigger Time,0s,,2.4E-4,-6.4,
Source,CH2,,3.2E-4,-5.6,
Vertical Units,(V)/grid,,4.0E-4,-5.6,
Vertical Scale,20.0,,4.8E-4,8.400001,
Vertical Offset,-44,,5.5999996E-4,4.4,
Horizontal Units,s/grid,,6.4E-4,3.2,
Horizontal Scale,0.5,,7.2E-4,2.4,
Probe Atten,10.0,,8.0E-4,1.6,
,,,8.7999995E-4,1.6,
,,,9.6E-4,1.6,
,,,0.00104,-10.8,
,,,0.0011199999,-7.2000003,
,,,0.0011999999,-5.6,
,,,0.00128,-5.6,
,,,0.00136,-4.8,
,,,0.00144,-4.8,
,,,0.0015199999,-4.0,
,,,0.0016,6.8,
,,,0.00168,3.2,
,,,0.0017599999,1.6,
,,,0.0018399999,0.8,
,,,0.00192,0.8,
,,,0.0019999999,0.8,
,,,0.00208,0.0,
,,,0.00216,-6.4,
,,,0.0022399998,-6.4,
,,,0.00232,-4.8,
,,,0.0023999999,-4.8,
,,,0.00248,-4.0,
,,,0.00256,-4.0,
,,,0.0026399998,-4.0,
,,,0.00272,-4.0,
,,,0.0028,2.4,
,,,0.00288,1.6,
,,,0.00296,0.8,
,,,0.0030399999,0.0,
,,,0.00312,0.0,
,,,0.0032,0.0,
,,,0.0032799998,0.0,
,,,0.00336,-0.8,
,,,0.00344,-3.2,
,,,0.0035199998,-3.2,
,,,0.0036,-3.2,
,,,0.0036799998,-3.2,
,,,0.00376,-3.2,
,,,0.00384,-3.2,
,,,0.00392,-3.2,
,,,0.0039999997,1.6,
,,,0.00408,0.0,
,,,0.00416,0.0,
,,,0.0042399997,0.0,
,,,0.00432,-0.8,
,,,0.0044,-0.8,
,,,0.0044799997,-0.8,
,,,0.00456,-3.2,
,,,0.00464,-2.4,
,,,0.00472,-2.4,
,,,0.0047999998,-2.4,
,,,0.00488,-2.4,
,,,0.00496,-2.4,
,,,0.0050399997,-2.4,
,,,0.00512,0.8,
,,,0.0052,0.8,
,,,0.0052799997,0.0,
,,,0.00536,0.0,
,,,0.00544,0.0,
,,,0.0055199997,0.0,
,,,0.0056,-0.8,
,,,0.00568,-0.8,
,,,0.00576,-3.2,
,,,0.0058399998,-2.4,
,,,0.00592,-2.4,
,,,0.006,-2.4,
,,,0.0060799997,-2.4,
,,,0.00616,-2.4,
,,,0.00624,-2.4,
,,,0.0063199997,0.8,
,,,0.0064,0.0,
,,,0.00648,0.0,
,,,0.0065599997,-0.8,
,,,0.00664,0.0,
,,,0.00672,-0.8,
,,,0.0067999996,-0.8,
,,,0.00688,-3.2,
,,,0.00696,-3.2,
,,,0.0070399996,-2.4,
,,,0.0071199997,-2.4,
,,,0.0072,-2.4,
,,,0.00728,-2.4,
,,,0.0073599997,-2.4,
,,,0.00744,-1.6,
,,,0.00752,0.8,
,,,0.0075999997,0.0,
,,,0.00768,0.0,
,,,0.00776,0.0,
,,,0.00784,-0.8,
,,,0.00792,-0.8,
,,,0.007999999,-0.8,
,,,0.00808,-3.2,
,,,0.00816,-4.8,
,,,0.008239999,-4.0,
,,,0.00832,-4.0,
,,,0.0084,-3.2,
,,,0.008479999,-3.2,
,,,0.00856,17.2,
,,,0.00864,10.8,
,,,0.008719999,7.6,
,,,0.0088,6.8,
,,,0.00888,6.0,
,,,0.008959999,5.2000003,
,,,0.00904,4.4,
,,,0.00912,-19.6,
,,,0.0092,-14.8,
,,,0.00928,-9.6,
,,,0.00936,-8.0,
,,,0.00944,-7.2000003,
,,,0.00952,-6.4,
,,,0.0095999995,-5.6,
,,,0.00968,-5.6,
,,,0.00976,10.8,
,,,0.0098399995,6.8,
,,,0.00992,4.4,
,,,0.01,3.2,
,,,0.010079999,3.2,
,,,0.01016,2.4,
,,,0.01024,2.4,
,,,0.010319999,-10.8,
,,,0.0104,-6.4,
,,,0.01048,-4.8,
,,,0.010559999,-4.0,
,,,0.01064,-4.0,
,,,0.01072,-3.2,
,,,0.010799999,-3.2,
,,,0.01088,-3.2,
,,,0.01096,6.0,
,,,0.011039999,3.2,
,,,0.01112,2.4,
,,,0.0112,1.6,
,,,0.011279999,1.6,
,,,0.01136,1.6,
,,,0.01144,1.6,
,,,0.01152,-6.4,
,,,0.0116,-4.0,
,,,0.0116799995,-3.2,
,,,0.01176,-2.4,
,,,0.01184,-2.4,
,,,0.0119199995,-1.6,
,,,0.012,-1.6,
,,,0.01208,3.2,
,,,0.012159999,2.4,
,,,0.01224,1.6,
,,,0.01232,1.6,
,,,0.012399999,0.8,
,,,0.01248,0.8,
,,,0.01256,0.8,
,,,0.012639999,0.0,
,,,0.01272,-3.2,
,,,0.0128,-2.4,
,,,0.012879999,-2.4,
,,,0.01296,-1.6,
,,,0.01304,-1.6,
,,,0.013119999,-1.6,
,,,0.0132,-1.6,
,,,0.01328,2.4,
,,,0.013359999,0.8,
,,,0.01344,0.8,
,,,0.01352,0.0,
,,,0.013599999,0.8,
,,,0.01368,0.0,
,,,0.01376,0.0,
,,,0.013839999,-4.0,
,,,0.01392,-2.4,
,,,0.0139999995,-2.4,
,,,0.014079999,-2.4,
,,,0.01416,-1.6,
,,,0.014239999,-1.6,
,,,0.01432,-1.6,
,,,0.0144,1.6,
,,,0.014479999,0.8,
,,,0.01456,0.0,
,,,0.01464,0.0,
,,,0.014719999,0.0,
,,,0.0148,0.0,
,,,0.01488,0.0,
,,,0.014959999,0.0,
,,,0.01504,-3.2,
,,,0.01512,-2.4,
,,,0.015199999,-2.4,
,,,0.01528,-1.6,
,,,0.01536,-1.6,
,,,0.015439999,-1.6,
,,,0.01552,-1.6,
,,,0.0156,0.8,
,,,0.01568,0.0,
,,,0.015759999,0.0,
,,,0.01584,0.0,
,,,0.01592,-0.8,
,,,0.015999999,-0.8,
,,,0.01608,-0.8,
,,,0.01616,-3.2,
,,,0.016239999,-3.2,
,,,0.01632,-2.4,
,,,0.0164,-2.4,
,,,0.016479999,-2.4,
,,,0.01656,-1.6,
,,,0.01664,-1.6,
,,,0.016719999,-1.6,
,,,0.0168,0.8,
,,,0.01688,0.8,
,,,0.016959999,0.0,
,,,0.01704,0.0,
,,,0.01712,0.0,
,,,0.017199999,0.0,
,,,0.01728,0.0,
,,,0.01736,-2.4,
,,,0.017439999,-3.2,
,,,0.01752,-2.4,
,,,0.0176,-1.6,
,,,0.017679999,-1.6,
,,,0.01776,-1.6,
,,,0.01784,-1.6,
,,,0.017919999,16.4,
,,,0.018,9.2,
,,,0.01808,7.6,
,,,0.01816,6.8,
,,,0.01824,6.0,
,,,0.01832,5.2000003,
,,,0.0184,5.2000003,
,,,0.01848,-18.0,
,,,0.01856,-8.8,
,,,0.01864,-6.4,
,,,0.01872,-5.6,
,,,0.0188,-4.8,
,,,0.01888,-4.8,
,,,0.01896,-4.8,
,,,0.01904,12.400001,
,,,0.01912,7.6,
,,,0.019199999,6.0,
,,,0.01928,4.4,
,,,0.01936,4.4,
,,,0.019439999,3.2,
,,,0.01952,3.2,
,,,0.0196,-11.6,
,,,0.019679999,-7.2000003,
,,,0.01976,-4.8,
,,,0.01984,-4.0,
,,,0.019919999,-4.0,
,,,0.02,-3.2,
,,,0.02008,-3.2,
,,,0.020159999,-2.4,
,,,0.02024,6.8,
,,,0.02032,4.4,
,,,0.020399999,3.2,
,,,0.02048,2.4,
,,,0.02056,1.6,
,,,0.020639999,1.6,
,,,0.02072,1.6,
,,,0.0208,-7.2000003,
,,,0.020879999,-4.0,
,,,0.02096,-3.2,
,,,0.02104,-2.4,
,,,0.021119999,-2.4,
,,,0.0212,-2.4,
,,,0.02128,-2.4,
,,,0.021359999,4.4,
,,,0.02144,2.4,
,,,0.02152,1.6,
,,,0.021599999,0.8,
,,,0.02168,0.8,
,,,0.02176,0.8,
,,,0.021839999,0.8,
,,,0.02192,0.8,
,,,0.022,-4.0,
,,,0.022079999,-3.2,
,,,0.02216,-2.4,
,,,0.02224,-2.4,
,,,0.022319999,-2.4,
,,,0.0224,-2.4,
,,,0.02248,-2.4,
,,,0.022559999,1.6,
,,,0.02264,0.8,
,,,0.02272,0.0,
,,,0.022799999,0.0,
,,,0.02288,0.0,
,,,0.02296,0.0,
,,,0.02304,0.0,
,,,0.02312,-3.2,
,,,0.0232,-3.2,
,,,0.02328,-2.4,
,,,0.023359999,-2.4,
,,,0.02344,-2.4,
,,,0.02352,-2.4,
,,,0.023599999,-3.2,
,,,0.02368,0.8,
,,,0.02376,0.8,
,,,0.023839999,0.0,
,,,0.02392,0.0,
,,,0.024,0.0,
,,,0.024079999,-0.8,
,,,0.02416,-0.8,
,,,0.02424,-0.8,
,,,0.024319999,-3.2,
,,,0.0244,-2.4,
,,,0.02448,-2.4,
,,,0.024559999,-2.4,
,,,0.02464,-2.4,
,,,0.02472,-2.4,
,,,0.024799999,-2.4,
,,,0.02488,0.8,
,,,0.02496,0.8,
,,,0.025039999,0.0,
,,,0.02512,0.0,
,,,0.0252,0.0,
,,,0.025279999,0.0,
,,,0.02536,-0.8,
,,,0.02544,-0.8,
,,,0.025519999,-3.2,
,,,0.0256,-2.4,
,,,0.02568,-2.4,
,,,0.025759999,-1.6,
,,,0.02584,-1.6,
,,,0.02592,-1.6,
,,,0.025999999,-1.6,
,,,0.02608,0.8,
,,,0.02616,0.8,
,,,0.026239999,0.0,
,,,0.02632,0.0,
,,,0.0264,0.0,
,,,0.026479999,0.0,
,,,0.02656,-0.8,
,,,0.02664,-0.8,
,,,0.026719999,-2.4,
,,,0.0268,-2.4,
,,,0.02688,-2.4,
,,,0.026959999,-1.6,
,,,0.02704,-1.6,
,,,0.02712,-1.6,
,,,0.027199998,15.6,
,,,0.02728,8.400001,
,,,0.02736,6.8,
,,,0.027439998,6.0,
,,,0.02752,5.2000003,
,,,0.0276,4.4,
,,,0.027679998,4.4,
,,,0.027759999,-18.0,
,,,0.02784,-8.8,
,,,0.027919998,-7.2000003,
,,,0.027999999,-6.4,
,,,0.02808,-5.6,
,,,0.028159998,-4.8,
,,,0.028239999,-4.8,
,,,0.02832,12.400001,
,,,0.0284,7.6,
,,,0.028479999,6.0,
,,,0.02856,4.4,
,,,0.02864,4.4,
,,,0.028719999,3.2,
,,,0.0288,2.4,
,,,0.02888,2.4,
,,,0.028959999,-7.2000003,
,,,0.02904,-4.8,
,,,0.02912,-4.0,
,,,0.029199999,-4.0,
,,,0.02928,-3.2,
,,,0.02936,-3.2,
,,,0.029439999,-3.2,
,,,0.02952,6.8,
,,,0.0296,3.2,
,,,0.029679999,2.4,
,,,0.02976,2.4,
,,,0.02984,1.6,
,,,0.029919999,1.6,
,,,0.03,1.6,
,,,0.03008,-7.2000003,
,,,0.030159999,-4.8,
,,,0.03024,-4.0,
,,,0.03032,-3.2,
,,,0.030399999,-3.2,
,,,0.03048,-2.4,
,,,0.03056,-2.4,
,,,0.030639999,3.2,
,,,0.03072,2.4,
,,,0.0308,1.6,
,,,0.030879999,0.8,
,,,0.03096,0.8,
,,,0.03104,0.0,
,,,0.031119999,0.8,
,,,0.0312,0.0,
,,,0.03128,-4.0,
,,,0.03136,-3.2,
,,,0.03144,-2.4,
,,,0.031519998,-2.4,
,,,0.0316,-2.4,
,,,0.03168,-1.6,
,,,0.03176,-1.6,
,,,0.03184,1.6,
,,,0.03192,0.8,
,,,0.031999998,0.0,
,,,0.03208,0.0,
,,,0.03216,0.0,
,,,0.03224,0.0,
,,,0.03232,0.0,
,,,0.0324,-3.2,
,,,0.032479998,-3.2,
,,,0.03256,-2.4,
,,,0.03264,-2.4,
,,,0.03272,-1.6,
,,,0.0328,-1.6,
,,,0.03288,-1.6,
,,,0.032959998,-0.8,
,,,0.03304,0.8,
,,,0.03312,0.0,
,,,0.0332,0.0,
,,,0.03328,0.0,
,,,0.03336,-0.8,
,,,0.033439998,0.0,
,,,0.03352,-0.8,
,,,0.0336,-3.2,
,,,0.03368,-2.4,
,,,0.03376,-2.4,
,,,0.03384,-1.6,
,,,0.033919998,-1.6,
,,,0.033999998,-1.6,
,,,0.03408,-1.6,
,,,0.03416,0.8,
,,,0.03424,0.8,
,,,0.03432,0.0,
,,,0.034399997,0.0,
,,,0.034479998,0.0,
,,,0.03456,0.0,
,,,0.03464,0.0,
,,,0.03472,0.0,
,,,0.0348,-3.2,
,,,0.034879997,-2.4,
,,,0.034959998,-1.6,
,,,0.03504,-1.6,
,,,0.03512,-1.6,
,,,0.0352,-1.6,
,,,0.03528,-1.6,
,,,0.035359997,0.8,
,,,0.035439998,0.8,
,,,0.03552,0.0,
,,,0.0356,0.0,
,,,0.03568,0.0,
,,,0.03576,0.0,
,,,0.035839997,-0.8,
,,,0.035919998,0.0,
,,,0.036,-2.4,
,,,0.03608,-1.6,
,,,0.03616,-2.4,
,,,0.03624,-2.4,
,,,0.03632,-1.6,
,,,0.036399998,-2.4,
,,,0.03648,18.4,
,,,0.03656,9.2,
,,,0.03664,7.6,
,,,0.03672,6.0,
,,,0.0368,5.2000003,
,,,0.036879998,5.2000003,
,,,0.03696,4.4,
,,,0.03704,-18.800001,
,,,0.03712,-12.400001,
,,,0.0372,-8.8,
,,,0.03728,-8.0,
,,,0.037359998,-7.2000003,
,,,0.03744,-6.4,
,,,0.03752,-5.6,
,,,0.0376,12.400001,
,,,0.03768,8.400001,
,,,0.03776,5.2000003,
,,,0.037839998,4.4,
,,,0.03792,3.2,
,,,0.038,2.4,
,,,0.03808,2.4,
,,,0.03816,2.4,
,,,0.03824,-9.6,
,,,0.038319997,-6.4,
,,,0.038399998,-4.8,
,,,0.03848,-4.8,
,,,0.03856,-4.0,
,,,0.03864,-4.0,
,,,0.03872,-3.2,
,,,0.038799997,6.8,
,,,0.038879998,2.4,
,,,0.03896,1.6,
,,,0.03904,1.6,
,,,0.03912,0.8,
,,,0.0392,0.8,
,,,0.039279997,0.8,
,,,0.039359998,-7.2000003,
,,,0.03944,-5.6,
,,,0.03952,-4.0,
,,,0.0396,-4.0,
,,,0.03968,-3.2,
,,,0.039759997,-3.2,
,,,0.039839998,-3.2,
,,,0.03992,-2.4,
,,,0.04,2.4,
,,,0.04008,0.8,
,,,0.04016,0.8,
,,,0.040239997,0.0,
,,,0.040319998,0.0,
,,,0.0404,0.0,
,,,0.04048,0.0,
,,,0.04056,-4.8,
,,,0.04064,-3.2,
,,,0.040719997,-3.2,
,,,0.040799998,-2.4,
,,,0.04088,-2.4,
,,,0.04096,-2.4,
,,,0.04104,-2.4,
,,,0.04112,1.6,
,,,0.0412,0.8,
,,,0.041279998,0.0,
,,,0.04136,0.0,
,,,0.04144,0.0,
,,,0.04152,0.0,
,,,0.0416,-0.8,
,,,0.04168,-3.2,
,,,0.041759998,-3.2,
,,,0.04184,-3.2,
,,,0.04192,-2.4,
,,,0.042,-2.4,
,,,0.04208,-2.4,
,,,0.04216,-2.4,
,,,0.042239998,-2.4,
,,,0.04232,0.8,
,,,0.0424,0.0,
,,,0.04248,-0.8,
,,,0.04256,-0.8,
,,,0.04264,-0.8,
,,,0.042719997,-0.8,
,,,0.042799998,-0.8,
,,,0.04288,-3.2,
,,,0.04296,-3.2,
,,,0.04304,-2.4,
,,,0.04312,-2.4,
,,,0.043199997,-2.4,
,,,0.043279998,-2.4,
,,,0.04336,-2.4,
,,,0.04344,-3.2,
,,,0.04352,0.8,
,,,0.0436,0.0,
,,,0.043679997,0.0,
,,,0.043759998,0.0,
,,,0.04384,0.0,
,,,0.04392,-0.8,
,,,0.044,-0.8,
,,,0.04408,-3.2,
,,,0.044159997,-3.2,
,,,0.044239998,-2.4,
,,,0.04432,-2.4,
,,,0.0444,-2.4,
,,,0.04448,-2.4,
,,,0.04456,-2.4,
,,,0.044639997,0.8,
,,,0.044719998,0.8,
,,,0.0448,0.0,
,,,0.04488,0.0,
,,,0.04496,0.0,
,,,0.04504,-0.8,
,,,0.045119997,-0.8,
,,,0.045199998,-0.8,
,,,0.04528,-3.2,
,,,0.04536,-2.4,
,,,0.04544,-2.4,
,,,0.04552,-2.4,
,,,0.045599997,-2.4,
,,,0.045679998,-2.4,
,,,0.04576,14.8,
,,,0.04584,10.8,
,,,0.04592,7.6,
,,,0.046,6.0,
,,,0.04608,6.0,
,,,0.046159998,5.2000003,
,,,0.04624,4.4,
,,,0.04632,-18.0,
,,,0.0464,-11.6,
,,,0.04648,-8.8,
,,,0.04656,-7.2000003,
,,,0.046639998,-6.4,
,,,0.046719998,-5.6,
,,,0.0468,-4.8,
,,,0.04688,-4.8,
,,,0.04696,6.8,
,,,0.04704,4.4,
,,,0.047119997,2.4,
,,,0.047199998,2.4,
,,,0.04728,1.6,
,,,0.04736,1.6,
,,,0.04744,1.6,
,,,0.04752,-9.6,
,,,0.047599997,-6.4,
,,,0.047679998,-5.6,
,,,0.04776,-4.8,
,,,0.04784,-4.8,
,,,0.04792,-4.0,
,,,0.048,-4.0,
,,,0.048079997,6.0,
,,,0.048159998,2.4,
,,,0.04824,1.6,
,,,0.04832,0.8,
,,,0.0484,0.8,
,,,0.04848,0.8,
,,,0.048559997,0.0,
,,,0.048639998,-6.4,
,,,0.04872,-5.6,
,,,0.0488,-4.0,
,,,0.04888,-4.0,
,,,0.04896,-3.2,
,,,0.049039997,-3.2,
,,,0.049119998,-3.2,
,,,0.0492,-3.2,
,,,0.04928,2.4,
,,,0.04936,0.8,
,,,0.04944,0.0,
,,,0.049519997,0.0,
,,,0.049599998,0.0,
,,,0.04968,0.0,
,,,0.04976,0.0,
,,,0.04984,-4.8,
,,,0.04992,-4.0,
,,,0.049999997,-3.2,
,,,0.050079998,-2.4,
,,,0.05016,-2.4,
,,,0.05024,-2.4,
,,,0.05032,-2.4,
,,,0.0504,1.6,
,,,0.050479997,0.8,
,,,0.050559998,0.0,
,,,0.05064,0.0,
,,,0.05072,-0.8,
,,,0.0508,-0.8,
,,,0.05088,-0.8,
,,,0.050959997,-0.8,
,,,0.051039997,-3.2,
,,,0.051119998,-2.4,
,,,0.0512,-2.4,
,,,0.05128,-2.4,
,,,0.05136,-2.4,
,,,0.05144,-2.4,
,,,0.051519997,-1.6,
,,,0.051599998,0.8,
,,,0.05168,0.8,
,,,0.05176,0.0,
,,,0.05184,0.0,
,,,0.05192,0.0,
,,,0.051999997,-0.8,
,,,0.052079998,-0.8,
,,,0.05216,-0.8,
,,,0.05224,-2.4,
,,,0.05232,-2.4,
,,,0.0524,-1.6,
,,,0.052479997,-1.6,
,,,0.052559998,-1.6,
,,,0.05264,-0.8,
,,,0.05272,-1.6,
,,,0.0528,0.8,
,,,0.05288,0.8,
,,,0.052959997,0.0,
,,,0.053039998,0.0,
,,,0.05312,0.0,
,,,0.0532,0.0,
,,,0.05328,-0.8,
,,,0.05336,-3.2,
,,,0.053439997,-2.4,
,,,0.053519998,-2.4,
,,,0.0536,-1.6,
,,,0.05368,-1.6,
,,,0.05376,-0.8,
,,,0.05384,-1.6,
,,,0.053919997,-0.8,
,,,0.053999998,0.8,
,,,0.05408,0.0,
,,,0.05416,0.0,
,,,0.05424,0.0,
,,,0.05432,0.0,
,,,0.054399997,0.0,
,,,0.054479998,-0.8,
,,,0.05456,-3.2,
,,,0.05464,-2.4,
,,,0.05472,-2.4,
,,,0.0548,-2.4,
,,,0.054879997,-1.6,
,,,0.054959998,-1.6,
,,,0.05504,-1.6,
,,,0.05512,10.8,
,,,0.0552,6.8,
,,,0.05528,6.0,
,,,0.055359997,5.2000003,
,,,0.055439997,4.4,
,,,0.055519998,4.4,
,,,0.0556,-19.6,
,,,0.05568,-13.2,
,,,0.05576,-9.6,
,,,0.055839997,-8.0,
,,,0.055919997,-7.2000003,
,,,0.055999998,-6.4,
,,,0.05608,-6.4,
,,,0.05616,-5.6,
,,,0.05624,8.400001,
,,,0.056319997,4.4,
,,,0.056399997,3.2,
,,,0.056479998,2.4,
,,,0.05656,1.6,
,,,0.05664,1.6,
,,,0.05672,1.6,
,,,0.0568,-10.8,
,,,0.056879997,-7.2000003,
,,,0.056959998,-5.6,
,,,0.05704,-5.6,
,,,0.05712,-4.8,
,,,0.0572,-4.8,
,,,0.05728,-4.0,
,,,0.057359997,6.8,
,,,0.057439998,3.2,
,,,0.05752,1.6,
,,,0.0576,0.8,
,,,0.05768,0.8,
,,,0.05776,0.8,
,,,0.057839997,0.0,
,,,0.057919998,-7.2000003,
,,,0.058,-6.4,
,,,0.05808,-4.8,
,,,0.05816,-4.0,
,,,0.05824,-4.0,
,,,0.058319997,-3.2,
,,,0.058399998,-3.2,
,,,0.05848,-3.2,
,,,0.05856,3.2,
,,,0.05864,1.6,
,,,0.05872,0.8,
,,,0.058799997,0.8,
,,,0.058879998,0.0,
,,,0.05896,0.0,
,,,0.05904,0.0,
,,,0.05912,-4.8,
,,,0.0592,-3.2,
,,,0.059279997,-3.2,
,,,0.059359998,-2.4,
,,,0.059439998,-2.4,
,,,0.05952,-2.4,
,,,0.0596,-2.4,
,,,0.05968,-1.6,
,,,0.059759997,1.6,
,,,0.059839997,0.8,
,,,0.059919998,0.0,
,,,0.06,0.0,
,,,0.06008,0.0,
,,,0.06016,0.0,
,,,0.060239997,0.0,
,,,0.060319997,-3.2,
,,,0.060399998,-2.4,
,,,0.06048,-1.6,
,,,0.06056,-1.6,
,,,0.06064,-1.6,
,,,0.060719997,-1.6,
,,,0.060799997,-1.6,
,,,0.060879998,0.8,
,,,0.06096,0.8,
,,,0.06104,0.0,
,,,0.06112,0.0,
,,,0.061199997,0.0,
,,,0.061279997,0.0,
,,,0.061359998,0.0,
,,,0.06144,0.0,
,,,0.06152,-2.4,
,,,0.0616,-2.4,
,,,0.06168,-2.4,
,,,0.061759997,-2.4,
,,,0.061839998,-2.4,
,,,0.06192,-2.4,
,,,0.062,-2.4,
,,,0.06208,0.8,
,,,0.06216,0.0,
,,,0.062239997,0.0,
,,,0.062319998,-0.8,
,,,0.0624,-0.8,
,,,0.06248,-0.8,
,,,0.06256,-0.8,
,,,0.06264,-3.2,
,,,0.06272,-3.2,
,,,0.0628,-3.2,
,,,0.06288,-2.4,
,,,0.06296,-2.4,
,,,0.063039996,-2.4,
,,,0.06312,-2.4,
,,,0.0632,-2.4,
,,,0.06328,0.8,
,,,0.06336,0.0,
,,,0.063439995,-0.8,
,,,0.06352,-0.8,
,,,0.063599996,-0.8,
,,,0.06368,-0.8,
,,,0.06376,-0.8,
,,,0.06384,-3.2,
,,,0.06392,-3.2,
,,,0.063999996,-2.4,
,,,0.06408,-2.4,
,,,0.06416,-2.4,
,,,0.06424,-2.4,
,,,0.06432,-3.2,
,,,0.064399995,11.6,
,,,0.06448,6.8,
,,,0.064559996,5.2000003,
,,,0.06464,4.4,
,,,0.06472,3.2,
,,,0.0648,3.2,
,,,0.06488,-20.4,
,,,0.064959995,-14.0,
,,,0.06504,-9.6,
,,,0.06512,-8.0,
,,,0.0652,-7.2000003,
,,,0.06528,-7.2000003,
,,,0.065359995,-6.4,
,,,0.06544,-6.4,
,,,0.065519996,11.6,
,,,0.0656,6.8,
,,,0.06568,4.4,
,,,0.06576,3.2,
,,,0.06584,2.4,
,,,0.065919995,2.4,
,,,0.066,2.4,
,,,0.06608,-10.8,
,,,0.06616,-6.4,
,,,0.06624,-4.8,
,,,0.066319995,-4.0,
,,,0.0664,-4.0,
,,,0.066479996,-4.0,
,,,0.06656,-3.2,
,,,0.06664,6.8,
,,,0.06672,5.2000003,
,,,0.0668,3.2,
,,,0.066879995,2.4,
,,,0.06696,1.6,
,,,0.06704,1.6,
,,,0.06712,1.6,
,,,0.0672,0.8,
,,,0.06728,-6.4,
,,,0.06736,-4.0,
,,,0.067439996,-3.2,
,,,0.06752,-3.2,
,,,0.0676,-2.4,
,,,0.06768,-2.4,
,,,0.06776,-2.4,
,,,0.067839995,3.2,
,,,0.06792,2.4,
,,,0.067999996,1.6,
,,,0.06808,0.8,
,,,0.06816,0.8,
,,,0.06824,0.8,
,,,0.06832,0.0,
,,,0.068399996,-4.0,
,,,0.06848,-4.0,
,,,0.06856,-2.4,
,,,0.06864,-2.4,
,,,0.06872,-2.4,
,,,0.068799995,-1.6,
,,,0.06888,-1.6,
,,,0.068959996,-1.6,
,,,0.06904,1.6,
,,,0.06912,0.8,
,,,0.0692,0.0,
,,,0.06928,0.0,
,,,0.069359995,0.0,
,,,0.06944,0.0,
,,,0.06952,0.0,
,,,0.0696,-3.2,
,,,0.06968,-2.4,
,,,0.069759995,-1.6,
,,,0.06984,-1.6,
,,,0.069919996,-1.6,
,,,0.07,-1.6,
,,,0.07008,-1.6,
,,,0.07016,0.8,
,,,0.07024,0.8,
,,,0.070319995,0.0,
,,,0.0704,0.0,
,,,0.07048,0.0,
,,,0.07056,0.0,
,,,0.07064,0.0,
,,,0.070719995,-0.8,
,,,0.0708,-2.4,
,,,0.070879996,-2.4,
,,,0.07096,-1.6,
,,,0.07104,-1.6,
,,,0.07112,-1.6,
,,,0.0712,-1.6,
,,,0.071279995,-1.6,
,,,0.07136,0.8,
,,,0.07144,0.0,
,,,0.07152,0.0,
,,,0.0716,0.0,
,,,0.071679994,-0.8,
,,,0.07176,0.0,
,,,0.071839996,-0.8,
,,,0.07192,-3.2,
,,,0.072,-3.2,
,,,0.07208,-2.4,
,,,0.07216,-1.6,
,,,0.072239995,-1.6,
,,,0.07232,-1.6,
,,,0.072399996,-1.6,
,,,0.07248,-0.8,
,,,0.07256,0.8,
,,,0.07264,0.8,
,,,0.07272,0.0,
,,,0.072799996,0.0,
,,,0.07288,0.0,
,,,0.07296,0.0,
,,,0.07304,0.0,
,,,0.07312,-3.2,
,,,0.073199995,-2.4,
,,,0.07328,-1.6,
,,,0.073359996,-1.6,
,,,0.07344,-1.6,
,,,0.07352,-1.6,
,,,0.0736,-0.8,
,,,0.07368,14.0,
,,,0.073759995,10.0,
,,,0.07384,7.6,
,,,0.07392,6.8,
,,,0.074,6.0,
,,,0.07408,5.2000003,
,,,0.074159995,4.4,
,,,0.07424,-15.6,
,,,0.074319996,-8.8,
,,,0.0744,-7.2000003,
,,,0.07448,-6.4,
,,,0.07456,-5.6,
,,,0.07464,-4.8,
,,,0.074719995,-4.8,
,,,0.0748,13.2,
,,,0.07488,8.400001,
,,,0.07496,6.0,
,,,0.07504,5.2000003,
,,,0.075119995,4.4,
,,,0.0752,3.2,
,,,0.075279996,3.2,
,,,0.07536,-12.400001,
,,,0.07544,-7.2000003,
,,,0.07552,-4.8,
,,,0.0756,-4.0,
,,,0.075679995,-4.0,
,,,0.07576,-3.2,
,,,0.07584,-3.2,
,,,0.07592,7.6,
,,,0.076,6.8,
,,,0.076079994,4.4,
,,,0.07616,2.4,
,,,0.076239996,2.4,
,,,0.07632,1.6,
,,,0.0764,1.6,
,,,0.07648,1.6,
,,,0.07656,-7.2000003,
,,,0.076639995,-4.0,
,,,0.07672,-3.2,
,,,0.076799996,-3.2,
,,,0.07688,-2.4,
,,,0.07696,-2.4,
,,,0.07704,-2.4,
,,,0.07712,4.4,
,,,0.077199996,2.4,
,,,0.07728,1.6,
,,,0.07736,1.6,
,,,0.07744,0.8,
,,,0.07752,0.8,
,,,0.077599995,0.8,
,,,0.07768,0.8,
,,,0.077759996,-4.0,
,,,0.07784,-3.2,
,,,0.07792,-2.4,
,,,0.078,-2.4,
,,,0.07808,-1.6,
,,,0.078159995,-2.4,
,,,0.07824,-1.6,
,,,0.07832,2.4,
,,,0.0784,0.8,
,,,0.07848,0.8,
,,,0.078559995,0.0,
,,,0.07864,0.0,
,,,0.078719996,0.0,
,,,0.0788,0.0,
,,,0.07888,-4.0,
,,,0.07896,-3.2,
,,,0.07904,-2.4,
,,,0.079119995,-2.4,
,,,0.0792,-2.4,
,,,0.07928,-1.6,
,,,0.07936,-1.6,
,,,0.07944,0.8,
,,,0.079519995,0.8,
,,,0.0796,0.0,
,,,0.079679996,0.0,
,,,0.07976,0.0,
,,,0.07984,0.0,
,,,0.07992,0.0,
,,,0.08,0.0,
,,,0.080079995,-3.2,
,,,0.08016,-2.4,
,,,0.08024,-2.4,
,,,0.08032,-1.6,
,,,0.0804,-1.6,
,,,0.080479994,-1.6,
,,,0.08056,-1.6,
,,,0.080639996,0.8,
,,,0.08072,0.8,
,,,0.0808,0.0,
,,,0.08088,0.0,
,,,0.08096,0.0,
,,,0.081039995,0.0,
,,,0.08112,0.0,
,,,0.081199996,0.0,
,,,0.08128,-3.2,
,,,0.08136,-2.4,
,,,0.081439994,-2.4,
,,,0.08152,-1.6,
,,,0.081599995,-2.4,
,,,0.08168,-1.6,
,,,0.08176,-1.6,
,,,0.08184,0.8,
,,,0.08192,0.8,
,,,0.081999995,0.0,
,,,0.08208,0.0,
,,,0.082159996,-0.8,
,,,0.08224,0.0,
,,,0.08232,-0.8,
,,,0.0824,-2.4,
,,,0.08248,-2.4,
,,,0.082559995,-2.4,
,,,0.08264,-2.4,
,,,0.08272,-2.4,
,,,0.0828,-2.4,
,,,0.08288,-2.4,
,,,0.082959995,14.0,
,,,0.08304,9.2,
,,,0.083119996,6.8,
,,,0.0832,5.2000003,
,,,0.08328,4.4,
,,,0.08336,4.4,
,,,0.08344,3.2,
,,,0.083519995,-17.2,
,,,0.0836,-9.6,
,,,0.08368,-8.0,
,,,0.08376,-7.2000003,
,,,0.08384,-6.4,
,,,0.083919995,-5.6,
,,,0.084,-5.6,
,,,0.084079996,12.400001,
,,,0.08416,7.6,
,,,0.08424,5.2000003,
,,,0.08432,4.4,
,,,0.0844,3.2,
,,,0.084479995,3.2,
,,,0.08456,2.4,
,,,0.08464,-11.6,
,,,0.08472,-7.2000003,
,,,0.0848,-4.8,
,,,0.084879994,-4.8,
,,,0.08496,-4.0,
,,,0.085039996,-4.0,
,,,0.08512,-3.2,
,,,0.0852,-3.2,
,,,0.08528,6.8,
,,,0.08536,3.2,
,,,0.085439995,2.4,
,,,0.08552,1.6,
,,,0.085599996,1.6,
,,,0.08568,1.6,
,,,0.08576,1.6,
,,,0.085839994,-7.2000003,
,,,0.08592,-4.0,
,,,0.085999995,-3.2,
,,,0.08608,-3.2,
,,,0.08616,-2.4,
,,,0.08624,-2.4,
,,,0.08632,-2.4,
,,,0.086399995,4.4,
,,,0.08648,2.4,
,,,0.086559996,1.6,
,,,0.08664,0.8,
,,,0.08672,0.8,
,,,0.086799994,0.0,
,,,0.08688,0.0,
,,,0.086959995,0.0,
,,,0.08704,-4.8,
,,,0.08712,-3.2,
,,,0.0872,-2.4,
,,,0.08728,-2.4,
,,,0.087359995,-2.4,
,,,0.08744,-2.4,
,,,0.087519996,-2.4,
,,,0.0876,1.6,
,,,0.08768,0.8,
,,,0.08776,0.0,
,,,0.08784,0.0,
,,,0.087919995,0.0,
,,,0.088,0.0,
,,,0.08808,0.0,
,,,0.08816,-3.2,
,,,0.08824,-3.2,
