data/2112220048.csv

ProID,Info,,time,Value,
GenTime,2021-12-22 20:45:00,,0.0,-4.0,
Record Length,87500 Points,,8.0E-5,-4.0,
Sample Interval,8.0E-5 s,,1.6E-4,4.4,
Trigger Time,0s,,2.4E-4,4.4,
Source,CH2,,3.2E-4,2.4,
Vertical Units,(V)/grid,,4.0E-4,1.6,
Vertical Scale,20.0,,4.8E-4,1.6,
Vertical Offset,-44,,5.5999996E-4,0.8,
Horizontal Units,s/grid,,6.4E-4,0.8,
Horizontal Scale,0.5,,7.2E-4,0.8,
Probe Atten,10.0,,8.0E-4,-5.6,
,,,8.7999995E-4,-4.0,
,,,9.6E-4,-4.0,
,,,0.00104,-3.2,
,,,0.0011199999,-3.2,
,,,0.0011999999,-3.2,
,,,0.00128,-3.2,
,,,0.00136,2.4,
,,,0.00144,1.6,
,,,0.0015199999,0.8,
,,,0.0016,0.8,
,,,0.00168,0.0,
,,,0.0017599999,0.0,
,,,0.0018399999,0.0,
,,,0.00192,0.0,
,,,0.0019999999,-4.0,
,,,0.00208,-3.2,
,,,0.00216,-2.4,
,,,0.0022399998,-2.4,
,,,0.00232,-2.4,
,,,0.0023999999,-2.4,
,,,0.00248,-2.4,
,,,0.00256,1.6,
,,,0.0026399998,0.8,
,,,0.00272,0.0,
,,,0.0028,0.0,
,,,0.00288,0.0,
,,,0.00296,0.0,
,,,0.0030399999,0.0,
,,,0.00312,-0.8,
,,,0.0032,-3.2,
,,,0.0032799998,-2.4,
,,,0.00336,-2.4,
,,,0.00344,-1.6,
,,,0.0035199998,-2.4,
,,,0.0036,-2.4,
,,,0.0036799998,-2.4,
,,,0.00376,0.8,
,,,0.00384,0.8,
,,,0.00392,0.0,
,,,0.0039999997,0.0,
,,,0.00408,0.0,
,,,0.00416,-0.8,
,,,0.0042399997,-0.8,
,,,0.00432,-3.2,
,,,0.0044,-3.2,
,,,0.0044799997,-3.2,
,,,0.00456,-3.2,
,,,0.00464,-3.2,
,,,0.00472,-3.2,
,,,0.0047999998,-3.2,
,,,0.00488,0.8,
,,,0.00496,0.8,
,,,0.0050399997,0.0,
,,,0.00512,0.0,
,,,0.0052,0.0,
,,,0.0052799997,0.0,
,,,0.00536,-0.8,
,,,0.00544,-0.8,
,,,0.0055199997,-3.2,
,,,0.0056,-3.2,
,,,0.00568,-3.2,
,,,0.00576,-3.2,
,,,0.0058399998,-3.2,
,,,0.00592,-3.2,
,,,0.006,-3.2,
,,,0.0060799997,12.400001,
,,,0.00616,7.6,
,,,0.00624,6.0,
,,,0.0063199997,5.2000003,
,,,0.0064,4.4,
,,,0.00648,3.2,
,,,0.0065599997,-22.0,
,,,0.00664,-16.4,
,,,0.00672,-12.400001,
,,,0.0067999996,-10.8,
,,,0.00688,-9.6,
,,,0.00696,-8.8,
,,,0.0070399996,-8.8,
,,,0.0071199997,14.8,
,,,0.0072,10.8,
,,,0.00728,6.8,
,,,0.0073599997,6.0,
,,,0.00744,4.4,
,,,0.00752,4.4,
,,,0.0075999997,3.2,
,,,0.00768,3.2,
,,,0.00776,-12.400001,
,,,0.00784,-8.8,
,,,0.00792,-7.2000003,
,,,0.007999999,-6.4,
,,,0.00808,-5.6,
,,,0.00816,-5.6,
,,,0.008239999,-4.8,
,,,0.00832,8.400001,
,,,0.0084,5.2000003,
,,,0.008479999,3.2,
,,,0.00856,2.4,
,,,0.00864,2.4,
,,,0.008719999,1.6,
,,,0.0088,1.6,
,,,0.00888,-8.0,
,,,0.008959999,-8.0,
,,,0.00904,-5.6,
,,,0.00912,-4.8,
,,,0.0092,-4.0,
,,,0.00928,-4.0,
,,,0.00936,-4.0,
,,,0.00944,-3.2,
,,,0.00952,5.2000003,
,,,0.0095999995,2.4,
,,,0.00968,1.6,
,,,0.00976,1.6,
,,,0.0098399995,0.8,
,,,0.00992,0.8,
,,,0.01,0.8,
,,,0.010079999,-5.6,
,,,0.01016,-4.8,
,,,0.01024,-4.0,
,,,0.010319999,-3.2,
,,,0.0104,-3.2,
,,,0.01048,-3.2,
,,,0.010559999,-2.4,
,,,0.01064,-3.2,
,,,0.01072,2.4,
,,,0.010799999,0.8,
,,,0.01088,0.8,
,,,0.01096,0.8,
,,,0.011039999,0.0,
,,,0.01112,0.0,
,,,0.0112,0.0,
,,,0.011279999,-4.0,
,,,0.01136,-3.2,
,,,0.01144,-2.4,
,,,0.01152,-2.4,
,,,0.0116,-2.4,
,,,0.0116799995,-2.4,
,,,0.01176,-2.4,
,,,0.01184,1.6,
,,,0.0119199995,0.8,
,,,0.012,0.0,
,,,0.01208,0.0,
,,,0.012159999,0.0,
,,,0.01224,0.0,
,,,0.01232,0.0,
,,,0.012399999,-3.2,
,,,0.01248,-3.2,
,,,0.01256,-2.4,
,,,0.012639999,-2.4,
,,,0.01272,-2.4,
,,,0.0128,-2.4,
,,,0.012879999,-2.4,
,,,0.01296,-1.6,
,,,0.01304,0.8,
,,,0.013119999,0.0,
,,,0.0132,0.0,
,,,0.01328,0.0,
,,,0.013359999,0.0,
,,,0.01344,0.0,
,,,0.01352,0.0,
,,,0.013599999,-3.2,
,,,0.01368,-3.2,
,,,0.01376,-2.4,
,,,0.013839999,-2.4,
,,,0.01392,-1.6,
,,,0.0139999995,-1.6,
,,,0.014079999,-1.6,
,,,0.01416,0.8,
,,,0.014239999,0.8,
,,,0.01432,0.0,
,,,0.0144,0.0,
,,,0.014479999,0.0,
,,,0.01456,0.0,
,,,0.01464,0.0,
,,,0.014719999,0.0,
,,,0.0148,-3.2,
,,,0.01488,-2.4,
,,,0.014959999,-2.4,
,,,0.01504,-2.4,
,,,0.01512,-1.6,
,,,0.015199999,-1.6,
,,,0.01528,-1.6,
,,,0.01536,10.8,
,,,0.015439999,6.8,
,,,0.01552,5.2000003,
,,,0.0156,4.4,
,,,0.01568,4.4,
,,,0.015759999,3.2,
,,,0.01584,-22.0,
,,,0.01592,-17.2,
,,,0.015999999,-13.2,
,,,0.01608,-10.8,
,,,0.01616,-9.6,
,,,0.016239999,-8.8,
,,,0.01632,-8.8,
,,,0.0164,-8.0,
,,,0.016479999,14.0,
,,,0.01656,9.2,
,,,0.01664,6.8,
,,,0.016719999,5.2000003,
,,,0.0168,4.4,
,,,0.01688,4.4,
,,,0.016959999,3.2,
,,,0.01704,-13.2,
,,,0.01712,-9.6,
,,,0.017199999,-7.2000003,
,,,0.01728,-6.4,
,,,0.01736,-5.6,
,,,0.017439999,-5.6,
,,,0.01752,-4.8,
,,,0.0176,7.6,
,,,0.017679999,7.6,
,,,0.01776,4.4,
,,,0.01784,3.2,
,,,0.017919999,2.4,
,,,0.018,2.4,
,,,0.01808,1.6,
,,,0.01816,1.6,
,,,0.01824,-8.0,
,,,0.01832,-5.6,
,,,0.0184,-4.8,
,,,0.01848,-4.0,
,,,0.01856,-4.0,
,,,0.01864,-4.0,
,,,0.01872,-4.0,
,,,0.0188,5.2000003,
,,,0.01888,3.2,
,,,0.01896,1.6,
,,,0.01904,1.6,
,,,0.01912,1.6,
,,,0.019199999,0.8,
,,,0.01928,0.8,
,,,0.01936,-5.6,
,,,0.019439999,-4.8,
,,,0.01952,-4.0,
,,,0.0196,-3.2,
,,,0.019679999,-3.2,
,,,0.01976,-3.2,
,,,0.01984,-3.2,
,,,0.019919999,-3.2,
,,,0.02,2.4,
,,,0.02008,1.6,
,,,0.020159999,0.8,
,,,0.02024,0.8,
,,,0.02032,0.0,
,,,0.020399999,0.0,
,,,0.02048,0.0,
,,,0.02056,-4.0,
,,,0.020639999,-3.2,
,,,0.02072,-3.2,
,,,0.0208,-2.4,
,,,0.020879999,-2.4,
,,,0.02096,-2.4,
,,,0.02104,-2.4,
,,,0.021119999,1.6,
,,,0.0212,0.8,
,,,0.02128,0.0,
,,,0.021359999,0.0,
,,,0.02144,0.0,
,,,0.02152,0.0,
,,,0.021599999,0.0,
,,,0.02168,-3.2,
,,,0.02176,-3.2,
,,,0.021839999,-2.4,
,,,0.02192,-2.4,
,,,0.022,-2.4,
,,,0.022079999,-2.4,
,,,0.02216,-2.4,
,,,0.02224,-2.4,
,,,0.022319999,0.8,
,,,0.0224,0.0,
,,,0.02248,0.0,
,,,0.022559999,0.0,
,,,0.02264,0.0,
,,,0.02272,0.0,
,,,0.022799999,-0.8,
,,,0.02288,-3.2,
,,,0.02296,-3.2,
,,,0.02304,-2.4,
,,,0.02312,-2.4,
,,,0.0232,-2.4,
,,,0.02328,-2.4,
,,,0.023359999,-2.4,
,,,0.02344,-1.6,
,,,0.02352,0.8,
,,,0.023599999,0.8,
,,,0.02368,0.0,
,,,0.02376,0.0,
,,,0.023839999,0.0,
,,,0.02392,-0.8,
,,,0.024,-0.8,
,,,0.024079999,-3.2,
,,,0.02416,-3.2,
,,,0.02424,-3.2,
,,,0.024319999,-3.2,
,,,0.0244,-3.2,
,,,0.02448,-3.2,
,,,0.024559999,-3.2,
,,,0.02464,14.0,
,,,0.02472,10.0,
,,,0.024799999,6.8,
,,,0.02488,6.0,
,,,0.02496,5.2000003,
,,,0.025039999,4.4,
,,,0.02512,-22.800001,
,,,0.0252,-21.2,
,,,0.025279999,-14.0,
,,,0.02536,-12.400001,
,,,0.02544,-11.6,
,,,0.025519999,-10.8,
,,,0.0256,-10.8,
,,,0.02568,-9.6,
,,,0.025759999,14.8,
,,,0.02584,9.2,
,,,0.02592,6.8,
,,,0.025999999,5.2000003,
,,,0.02608,4.4,
,,,0.02616,4.4,
,,,0.026239999,3.2,
,,,0.02632,-13.2,
,,,0.0264,-9.6,
,,,0.026479999,-8.0,
,,,0.02656,-7.2000003,
,,,0.02664,-6.4,
,,,0.026719999,-6.4,
,,,0.0268,-6.4,
,,,0.02688,-5.6,
,,,0.026959999,8.400001,
,,,0.02704,4.4,
,,,0.02712,3.2,
,,,0.027199998,2.4,
,,,0.02728,2.4,
,,,0.02736,1.6,
,,,0.027439998,1.6,
,,,0.02752,-8.0,
,,,0.0276,-5.6,
,,,0.027679998,-4.8,
,,,0.027759999,-4.0,
,,,0.02784,-4.0,
,,,0.027919998,-4.0,
,,,0.027999999,-3.2,
,,,0.02808,5.2000003,
,,,0.028159998,3.2,
,,,0.028239999,2.4,
,,,0.02832,1.6,
,,,0.0284,0.8,
,,,0.028479999,0.8,
,,,0.02856,0.8,
,,,0.02864,-5.6,
,,,0.028719999,-4.8,
,,,0.0288,-4.0,
,,,0.02888,-3.2,
,,,0.028959999,-3.2,
,,,0.02904,-3.2,
,,,0.02912,-3.2,
,,,0.029199999,-2.4,
,,,0.02928,2.4,
,,,0.02936,1.6,
,,,0.029439999,0.8,
,,,0.02952,0.8,
,,,0.0296,0.0,
,,,0.029679999,0.0,
,,,0.02976,0.0,
,,,0.02984,-4.0,
,,,0.029919999,-3.2,
,,,0.03,-3.2,
,,,0.03008,-2.4,
,,,0.030159999,-2.4,
,,,0.03024,-2.4,
,,,0.03032,-2.4,
,,,0.030399999,1.6,
,,,0.03048,0.8,
,,,0.03056,0.0,
,,,0.030639999,0.0,
,,,0.03072,0.0,
,,,0.0308,0.0,
,,,0.030879999,0.0,
,,,0.03096,-0.8,
,,,0.03104,-3.2,
,,,0.031119999,-2.4,
,,,0.0312,-2.4,
,,,0.03128,-2.4,
,,,0.03136,-2.4,
,,,0.03144,-2.4,
,,,0.031519998,-2.4,
,,,0.0316,0.8,
,,,0.03168,0.8,
,,,0.03176,0.0,
,,,0.03184,0.0,
,,,0.03192,0.0,
,,,0.031999998,0.0,
,,,0.03208,0.0,
,,,0.03216,0.0,
,,,0.03224,-3.2,
,,,0.03232,-2.4,
,,,0.0324,-2.4,
,,,0.032479998,-2.4,
,,,0.03256,-2.4,
,,,0.03264,-1.6,
,,,0.03272,-1.6,
,,,0.0328,0.8,
,,,0.03288,0.8,
,,,0.032959998,0.0,
,,,0.03304,0.0,
,,,0.03312,0.0,
,,,0.0332,0.0,
,,,0.03328,0.0,
,,,0.03336,-3.2,
,,,0.033439998,-3.2,
,,,0.03352,-2.4,
,,,0.0336,-1.6,
,,,0.03368,-1.6,
,,,0.03376,-1.6,
,,,0.03384,-1.6,
,,,0.033919998,-1.6,
,,,0.033999998,8.400001,
,,,0.03408,6.0,
,,,0.03416,5.2000003,
,,,0.03424,5.2000003,
,,,0.03432,4.4,
,,,0.034399997,3.2,
,,,0.034479998,-22.800001,
,,,0.03456,-14.0,
,,,0.03464,-12.400001,
,,,0.03472,-10.8,
,,,0.0348,-9.6,
,,,0.034879997,-8.8,
,,,0.034959998,-8.0,
,,,0.03504,15.6,
,,,0.03512,7.6,
,,,0.0352,6.0,
,,,0.03528,4.4,
,,,0.035359997,3.2,
,,,0.035439998,3.2,
,,,0.03552,3.2,
,,,0.0356,-15.6,
,,,0.03568,-11.6,
,,,0.03576,-8.8,
,,,0.035839997,-8.0,
,,,0.035919998,-7.2000003,
,,,0.036,-6.4,
,,,0.03608,-6.4,
,,,0.03616,-5.6,
,,,0.03624,6.8,
,,,0.03632,4.4,
,,,0.036399998,2.4,
,,,0.03648,2.4,
,,,0.03656,1.6,
,,,0.03664,1.6,
,,,0.03672,0.8,
,,,0.0368,-9.6,
,,,0.036879998,-7.2000003,
,,,0.03696,-6.4,
,,,0.03704,-5.6,
,,,0.03712,-5.6,
,,,0.0372,-4.8,
,,,0.03728,-4.8,
,,,0.037359998,6.8,
,,,0.03744,5.2000003,
,,,0.03752,3.2,
,,,0.0376,2.4,
,,,0.03768,1.6,
,,,0.03776,1.6,
,,,0.037839998,0.8,
,,,0.03792,0.8,
,,,0.038,-7.2000003,
,,,0.03808,-4.8,
,,,0.03816,-4.8,
,,,0.03824,-4.0,
,,,0.038319997,-4.0,
,,,0.038399998,-3.2,
,,,0.03848,-3.2,
,,,0.03856,3.2,
,,,0.03864,2.4,
,,,0.03872,1.6,
,,,0.038799997,0.8,
,,,0.038879998,0.8,
,,,0.03896,0.8,
,,,0.03904,0.8,
,,,0.03912,-5.6,
,,,0.0392,-4.8,
,,,0.039279997,-3.2,
,,,0.039359998,-3.2,
,,,0.03944,-3.2,
,,,0.03952,-3.2,
,,,0.0396,-3.2,
,,,0.03968,1.6,
,,,0.039759997,1.6,
,,,0.039839998,0.8,
,,,0.03992,0.0,
,,,0.04,0.0,
,,,0.04008,0.0,
,,,0.04016,0.0,
,,,0.040239997,0.0,
,,,0.040319998,-4.0,
,,,0.0404,-3.2,
,,,0.04048,-2.4,
,,,0.04056,-2.4,
,,,0.04064,-2.4,
,,,0.040719997,-2.4,
,,,0.040799998,-2.4,
,,,0.04088,-1.6,
,,,0.04096,0.8,
,,,0.04104,0.0,
,,,0.04112,0.0,
,,,0.0412,0.0,
,,,0.041279998,0.0,
,,,0.04136,0.0,
,,,0.04144,0.0,
,,,0.04152,-3.2,
,,,0.0416,-2.4,
,,,0.04168,-2.4,
,,,0.041759998,-2.4,
,,,0.04184,-2.4,
,,,0.04192,-1.6,
,,,0.042,-1.6,
,,,0.04208,0.8,
,,,0.04216,0.8,
,,,0.042239998,0.0,
,,,0.04232,0.0,
,,,0.0424,0.0,
,,,0.04248,0.0,
,,,0.04256,0.0,
,,,0.04264,-3.2,
,,,0.042719997,-3.2,
,,,0.042799998,-2.4,
,,,0.04288,-2.4,
,,,0.04296,-2.4,
,,,0.04304,-2.4,
,,,0.04312,-2.4,
,,,0.043199997,-1.6,
,,,0.043279998,6.0,
,,,0.04336,4.4,
,,,0.04344,2.4,
,,,0.04352,1.6,
,,,0.0436,1.6,
,,,0.043679997,0.8,
,,,0.043759998,-20.4,
,,,0.04384,-14.0,
,,,0.04392,-12.400001,
,,,0.044,-10.8,
,,,0.04408,-9.6,
,,,0.044159997,-9.6,
,,,0.044239998,-9.6,
,,,0.04432,14.0,
,,,0.0444,9.2,
,,,0.04448,6.0,
,,,0.04456,5.2000003,
,,,0.044639997,4.4,
,,,0.044719998,3.2,
,,,0.0448,3.2,
,,,0.04488,2.4,
,,,0.04496,-12.400001,
,,,0.04504,-8.0,
,,,0.045119997,-7.2000003,
,,,0.045199998,-6.4,
,,,0.04528,-6.4,
,,,0.04536,-6.4,
,,,0.04544,-6.4,
,,,0.04552,7.6,
,,,0.045599997,4.4,
,,,0.045679998,2.4,
,,,0.04576,1.6,
,,,0.04584,1.6,
,,,0.04592,1.6,
,,,0.046,1.6,
,,,0.04608,-7.2000003,
,,,0.046159998,-6.4,
,,,0.04624,-4.8,
,,,0.04632,-4.8,
,,,0.0464,-4.8,
,,,0.04648,-4.0,
,,,0.04656,-4.0,
,,,0.046639998,4.4,
,,,0.046719998,2.4,
,,,0.0468,1.6,
,,,0.04688,0.8,
,,,0.04696,0.8,
,,,0.04704,0.8,
,,,0.047119997,0.0,
,,,0.047199998,0.0,
,,,0.04728,-4.8,
,,,0.04736,-4.0,
,,,0.04744,-3.2,
,,,0.04752,-3.2,
,,,0.047599997,-3.2,
,,,0.047679998,-2.4,
,,,0.04776,-2.4,
,,,0.04784,2.4,
,,,0.04792,0.8,
,,,0.048,0.0,
,,,0.048079997,0.0,
,,,0.048159998,0.0,
,,,0.04824,0.0,
,,,0.04832,0.0,
,,,0.0484,-3.2,
,,,0.04848,-3.2,
,,,0.048559997,-3.2,
,,,0.048639998,-2.4,
,,,0.04872,-2.4,
,,,0.0488,-2.4,
,,,0.04888,-2.4,
,,,0.04896,-2.4,
,,,0.049039997,0.8,
,,,0.049119998,0.0,
,,,0.0492,0.0,
,,,0.04928,0.0,
,,,0.04936,0.0,
,,,0.04944,-0.8,
,,,0.049519997,-0.8,
,,,0.049599998,-3.2,
,,,0.04968,-2.4,
,,,0.04976,-2.4,
,,,0.04984,-2.4,
,,,0.04992,-2.4,
,,,0.049999997,-1.6,
,,,0.050079998,-2.4,
,,,0.05016,-1.6,
,,,0.05024,0.8,
,,,0.05032,0.0,
,,,0.0504,0.0,
,,,0.050479997,0.0,
,,,0.050559998,-0.8,
,,,0.05064,-0.8,
,,,0.05072,-0.8,
,,,0.0508,-3.2,
,,,0.05088,-2.4,
,,,0.050959997,-2.4,
,,,0.051039997,-2.4,
,,,0.051119998,-2.4,
,,,0.0512,-2.4,
,,,0.05128,-2.4,
,,,0.05136,0.8,
,,,0.05144,0.8,
,,,0.051519997,0.0,
,,,0.051599998,0.0,
,,,0.05168,0.0,
,,,0.05176,-0.8,
,,,0.05184,-0.8,
,,,0.05192,0.0,
,,,0.051999997,-3.2,
,,,0.052079998,-2.4,
,,,0.05216,-2.4,
,,,0.05224,-2.4,
,,,0.05232,-2.4,
,,,0.0524,-1.6,
,,,0.052479997,-2.4,
,,,0.052559998,10.0,
,,,0.05264,6.0,
,,,0.05272,5.2000003,
,,,0.0528,4.4,
,,,0.05288,3.2,
,,,0.052959997,3.2,
,,,0.053039998,-22.0,
,,,0.05312,-13.2,
,,,0.0532,-10.8,
,,,0.05328,-9.6,
,,,0.05336,-8.0,
,,,0.053439997,-8.0,
,,,0.053519998,-7.2000003,
,,,0.0536,18.4,
,,,0.05368,12.400001,
,,,0.05376,9.2,
,,,0.05384,7.6,
,,,0.053919997,6.8,
,,,0.053999998,6.0,
,,,0.05408,5.2000003,
,,,0.05416,5.2000003,
,,,0.05424,-14.8,
,,,0.05432,-9.6,
,,,0.054399997,-8.0,
,,,0.054479998,-7.2000003,
,,,0.05456,-6.4,
,,,0.05464,-5.6,
,,,0.05472,-4.8,
,,,0.0548,10.0,
,,,0.054879997,6.8,
,,,0.054959998,5.2000003,
,,,0.05504,4.4,
,,,0.05512,3.2,
,,,0.0552,3.2,
,,,0.05528,2.4,
,,,0.055359997,-10.8,
,,,0.055439997,-8.0,
,,,0.055519998,-5.6,
,,,0.0556,-4.8,
,,,0.05568,-4.0,
,,,0.05576,-3.2,
,,,0.055839997,-3.2,
,,,0.055919997,6.8,
,,,0.055999998,6.0,
,,,0.05608,3.2,
,,,0.05616,2.4,
,,,0.05624,2.4,
,,,0.056319997,2.4,
,,,0.056399997,1.6,
,,,0.056479998,1.6,
,,,0.05656,-7.2000003,
,,,0.05664,-4.8,
,,,0.05672,-4.0,
,,,0.0568,-4.0,
,,,0.056879997,-3.2,
,,,0.056959998,-3.2,
,,,0.05704,-3.2,
,,,0.05712,4.4,
,,,0.0572,2.4,
,,,0.05728,1.6,
,,,0.057359997,1.6,
,,,0.057439998,0.8,
,,,0.05752,0.8,
,,,0.0576,0.8,
,,,0.05768,0.0,
,,,0.05776,-4.8,
,,,0.057839997,-3.2,
,,,0.057919998,-3.2,
,,,0.058,-3.2,
,,,0.05808,-2.4,
,,,0.05816,-2.4,
,,,0.05824,-2.4,
,,,0.058319997,2.4,
,,,0.058399998,1.6,
,,,0.05848,0.8,
,,,0.05856,0.8,
,,,0.05864,0.8,
,,,0.05872,0.0,
,,,0.058799997,0.0,
,,,0.058879998,-4.0,
,,,0.05896,-3.2,
,,,0.05904,-2.4,
,,,0.05912,-2.4,
,,,0.0592,-2.4,
,,,0.059279997,-2.4,
,,,0.059359998,-2.4,
,,,0.059439998,-2.4,
,,,0.05952,0.8,
,,,0.0596,0.0,
,,,0.05968,0.0,
,,,0.059759997,0.0,
,,,0.059839997,0.0,
,,,0.059919998,0.0,
,,,0.06,0.0,
,,,0.06008,-3.2,
,,,0.06016,-3.2,
,,,0.060239997,-2.4,
,,,0.060319997,-2.4,
,,,0.060399998,-2.4,
,,,0.06048,-2.4,
,,,0.06056,-1.6,
,,,0.06064,0.8,
,,,0.060719997,0.8,
,,,0.060799997,0.0,
,,,0.060879998,0.0,
,,,0.06096,0.0,
,,,0.06104,0.0,
,,,0.06112,0.0,
,,,0.061199997,-0.8,
,,,0.061279997,-3.2,
,,,0.061359998,-3.2,
,,,0.06144,-2.4,
,,,0.06152,-2.4,
,,,0.0616,-2.4,
,,,0.06168,-2.4,
,,,0.061759997,-1.6,
,,,0.061839998,1.6,
,,,0.06192,3.2,
,,,0.062,1.6,
,,,0.06208,0.8,
,,,0.06216,0.8,
,,,0.062239997,0.8,
,,,0.062319998,-21.2,
,,,0.0624,-16.4,
,,,0.06248,-13.2,
,,,0.06256,-11.6,
,,,0.06264,-10.8,
,,,0.06272,-9.6,
,,,0.0628,-8.8,
,,,0.06288,17.2,
,,,0.06296,12.400001,
,,,0.063039996,8.400001,
,,,0.06312,6.8,
,,,0.0632,6.0,
,,,0.06328,5.2000003,
,,,0.06336,4.4,
,,,0.063439995,4.4,
,,,0.06352,-12.400001,
,,,0.063599996,-8.0,
,,,0.06368,-6.4,
,,,0.06376,-6.4,
,,,0.06384,-5.6,
,,,0.06392,-5.6,
,,,0.063999996,-5.6,
,,,0.06408,9.2,
,,,0.06416,6.0,
,,,0.06424,4.4,
,,,0.06432,3.2,
,,,0.064399995,3.2,
,,,0.06448,2.4,
,,,0.064559996,2.4,
,,,0.06464,-9.6,
,,,0.06472,-8.0,
,,,0.0648,-6.4,
,,,0.06488,-5.6,
,,,0.064959995,-4.8,
,,,0.06504,-4.8,
,,,0.06512,-4.8,
,,,0.0652,-4.0,
,,,0.06528,5.2000003,
,,,0.065359995,3.2,
,,,0.06544,2.4,
,,,0.065519996,1.6,
,,,0.0656,0.8,
,,,0.06568,0.8,
,,,0.06576,0.8,
,,,0.06584,-5.6,
,,,0.065919995,-4.8,
,,,0.066,-4.0,
,,,0.06608,-4.0,
,,,0.06616,-3.2,
,,,0.06624,-3.2,
,,,0.066319995,-3.2,
,,,0.0664,-3.2,
,,,0.066479996,2.4,
,,,0.06656,0.8,
,,,0.06664,0.8,
,,,0.06672,0.0,
,,,0.0668,0.0,
,,,0.066879995,0.0,
,,,0.06696,0.0,
,,,0.06704,-4.0,
,,,0.06712,-3.2,
,,,0.0672,-2.4,
,,,0.06728,-2.4,
,,,0.06736,-2.4,
,,,0.067439996,-2.4,
,,,0.06752,-2.4,
,,,0.0676,0.8,
,,,0.06768,0.8,
,,,0.06776,0.0,
,,,0.067839995,0.0,
,,,0.06792,0.0,
,,,0.067999996,0.0,
,,,0.06808,-0.8,
,,,0.06816,-3.2,
,,,0.06824,-3.2,
,,,0.06832,-2.4,
,,,0.068399996,-2.4,
,,,0.06848,-2.4,
,,,0.06856,-2.4,
,,,0.06864,-2.4,
,,,0.06872,-2.4,
,,,0.068799995,0.8,
,,,0.06888,0.0,
,,,0.068959996,0.0,
,,,0.06904,0.0,
,,,0.06912,0.0,
,,,0.0692,0.0,
,,,0.06928,0.0,
,,,0.069359995,-3.2,
,,,0.06944,-2.4,
,,,0.06952,-2.4,
,,,0.0696,-2.4,
,,,0.06968,-1.6,
,,,0.069759995,-1.6,
,,,0.06984,-1.6,
,,,0.069919996,0.8,
,,,0.07,0.8,
,,,0.07008,0.0,
,,,0.07016,0.0,
,,,0.07024,0.0,
,,,0.070319995,0.0,
,,,0.0704,0.0,
,,,0.07048,-0.8,
,,,0.07056,-3.2,
,,,0.07064,-2.4,
,,,0.070719995,-2.4,
,,,0.0708,-1.6,
,,,0.070879996,-1.6,
,,,0.07096,-1.6,
,,,0.07104,-1.6,
,,,0.07112,0.8,
,,,0.0712,0.8,
,,,0.071279995,0.0,
,,,0.07136,0.0,
,,,0.07144,0.0,
,,,0.07152,-0.8,
,,,0.0716,-20.4,
,,,0.071679994,-16.4,
,,,0.07176,-13.2,
,,,0.071839996,-11.6,
,,,0.07192,-9.6,
,,,0.072,-9.6,
,,,0.07208,-8.8,
,,,0.07216,-8.0,
,,,0.072239995,15.6,
,,,0.07232,9.2,
,,,0.072399996,6.8,
,,,0.07248,6.0,
,,,0.07256,5.2000003,
,,,0.07264,4.4,
,,,0.07272,4.4,
,,,0.072799996,-14.0,
,,,0.07288,-9.6,
,,,0.07296,-8.0,
,,,0.07304,-6.4,
,,,0.07312,-6.4,
,,,0.073199995,-5.6,
,,,0.07328,-5.6,
,,,0.073359996,9.2,
,,,0.07344,7.6,
,,,0.07352,5.2000003,
,,,0.0736,3.2,
,,,0.07368,3.2,
,,,0.073759995,2.4,
,,,0.07384,2.4,
,,,0.07392,1.6,
,,,0.074,-8.8,
,,,0.07408,-5.6,
,,,0.074159995,-4.8,
,,,0.07424,-4.0,
,,,0.074319996,-4.0,
,,,0.0744,-3.2,
,,,0.07448,-3.2,
,,,0.07456,6.0,
,,,0.07464,3.2,
,,,0.074719995,2.4,
,,,0.0748,1.6,
,,,0.07488,1.6,
,,,0.07496,1.6,
,,,0.07504,0.8,
,,,0.075119995,-6.4,
,,,0.0752,-4.8,
,,,0.075279996,-4.0,
,,,0.07536,-3.2,
,,,0.07544,-3.2,
,,,0.07552,-2.4,
,,,0.0756,-1.6,
,,,0.075679995,-1.6,
,,,0.07576,3.2,
,,,0.07584,2.4,
,,,0.07592,1.6,
,,,0.076,1.6,
,,,0.076079994,0.8,
,,,0.07616,0.8,
,,,0.076239996,0.8,
,,,0.07632,-4.8,
,,,0.0764,-4.0,
,,,0.07648,-3.2,
,,,0.07656,-3.2,
,,,0.076639995,-2.4,
,,,0.07672,-2.4,
,,,0.076799996,-1.6,
,,,0.07688,2.4,
,,,0.07696,1.6,
,,,0.07704,0.8,
,,,0.07712,0.8,
,,,0.077199996,0.8,
,,,0.07728,0.0,
,,,0.07736,0.0,
,,,0.07744,-4.0,
,,,0.07752,-3.2,
,,,0.077599995,-2.4,
,,,0.07768,-2.4,
,,,0.077759996,-2.4,
,,,0.07784,-2.4,
,,,0.07792,-2.4,
,,,0.078,-2.4,
,,,0.07808,0.8,
,,,0.078159995,0.8,
,,,0.07824,0.0,
,,,0.07832,0.0,
,,,0.0784,0.0,
,,,0.07848,0.0,
,,,0.078559995,0.0,
,,,0.07864,-3.2,
,,,0.078719996,-3.2,
,,,0.0788,-2.4,
,,,0.07888,-2.4,
,,,0.07896,-2.4,
,,,0.07904,-1.6,
,,,0.079119995,-1.6,
,,,0.0792,-1.6,
,,,0.07928,0.8,
,,,0.07936,0.8,
,,,0.07944,0.0,
,,,0.079519995,0.0,
,,,0.0796,0.0,
,,,0.079679996,0.0,
,,,0.07976,0.0,
,,,0.07984,-3.2,
,,,0.07992,-3.2,
,,,0.08,-2.4,
,,,0.080079995,-2.4,
,,,0.08016,-2.4,
,,,0.08024,-2.4,
,,,0.08032,-1.6,
,,,0.0804,0.8,
,,,0.080479994,0.8,
,,,0.08056,0.0,
,,,0.080639996,-0.8,
,,,0.08072,-0.8,
,,,0.0808,-0.8,
,,,0.08088,-0.8,
,,,0.08096,-18.800001,
,,,0.081039995,-12.400001,
,,,0.08112,-10.8,
,,,0.081199996,-9.6,
,,,0.08128,-8.8,
,,,0.08136,-8.0,
,,,0.081439994,-8.0,
,,,0.08152,17.2,
,,,0.081599995,8.400001,
,,,0.08168,6.8,
,,,0.08176,6.0,
,,,0.08184,5.2000003,
,,,0.08192,4.4,
,,,0.081999995,4.4,
,,,0.08208,-16.4,
,,,0.082159996,-11.6,
,,,0.08224,-9.6,
,,,0.08232,-8.0,
,,,0.0824,-7.2000003,
,,,0.08248,-7.2000003,
,,,0.082559995,-6.4,
,,,0.08264,10.8,
,,,0.08272,6.8,
,,,0.0828,4.4,
,,,0.08288,3.2,
,,,0.082959995,2.4,
,,,0.08304,2.4,
,,,0.083119996,1.6,
,,,0.0832,1.6,
,,,0.08328,-10.8,
,,,0.08336,-7.2000003,
,,,0.08344,-6.4,
,,,0.083519995,-5.6,
,,,0.0836,-5.6,
,,,0.08368,-5.6,
,,,0.08376,-4.8,
,,,0.08384,6.8,
,,,0.083919995,2.4,
,,,0.084,1.6,
,,,0.084079996,0.8,
,,,0.08416,0.8,
,,,0.08424,0.8,
,,,0.08432,0.0,
,,,0.0844,-7.2000003,
,,,0.084479995,-5.6,
,,,0.08456,-5.6,
,,,0.08464,-4.8,
,,,0.08472,-4.8,
,,,0.0848,-4.8,
,,,0.084879994,-4.8,
,,,0.08496,-4.8,
,,,0.085039996,1.6,
,,,0.08512,0.8,
,,,0.0852,0.0,
,,,0.08528,0.0,
,,,0.08536,0.0,
,,,0.085439995,-0.8,
,,,0.08552,-0.8,
,,,0.085599996,-4.8,
,,,0.08568,-4.0,
,,,0.08576,-4.0,
,,,0.085839994,-4.0,
,,,0.08592,-4.0,
,,,0.085999995,-3.2,
,,,0.08608,-4.0,
,,,0.08616,1.6,
,,,0.08624,0.8,
,,,0.08632,0.0,
,,,0.086399995,0.0,
,,,0.08648,0.0,
,,,0.086559996,-0.8,
,,,0.08664,-0.8,
,,,0.08672,-0.8,
,,,0.086799994,-3.2,
,,,0.08688,-3.2,
,,,0.086959995,-3.2,
,,,0.08704,-2.4,
,,,0.08712,-3.2,
,,,0.0872,-2.4,
,,,0.08728,-2.4,
,,,0.087359995,0.8,
,,,0.08744,0.0,
,,,0.087519996,0.0,
,,,0.0876,0.0,
,,,0.08768,0.0,
,,,0.08776,-0.8,
,,,0.08784,-0.8,
,,,0.087919995,-3.2,
,,,0.088,-3.2,
