data/2112220049.csv

ProID,Info,,time,Value,
GenTime,2021-12-22 20:45:10,,0.0,-4.0,
Record Length,87500 Points,,8.0E-5,-2.4,
Sample Interval,8.0E-5 s,,1.6E-4,-2.4,
Trigger Time,0s,,2.4E-4,-1.6,
Source,CH2,,3.2E-4,-1.6,
Vertical Units,(V)/grid,,4.0E-4,-1.6,
Vertical Scale,20.0,,4.8E-4,-1.6,
Vertical Offset,-44,,5.5999996E-4,0.8,
Horizontal Units,s/grid,,6.4E-4,0.8,
Horizontal Scale,0.5,,7.2E-4,0.8,
Probe Atten,10.0,,8.0E-4,0.0,
,,,8.7999995E-4,0.0,
,,,9.6E-4,0.0,
,,,0.00104,0.0,
,,,0.0011199999,0.0,
,,,0.0011999999,-3.2,
,,,0.00128,-2.4,
,,,0.00136,-2.4,
,,,0.00144,-1.6,
,,,0.0015199999,-1.6,
,,,0.0016,-1.6,
,,,0.00168,-0.8,
,,,0.0017599999,0.8,
,,,0.0018399999,0.8,
,,,0.00192,0.8,
,,,0.0019999999,0.0,
,,,0.00208,0.0,
,,,0.00216,0.0,
,,,0.0022399998,0.0,
,,,0.00232,0.0,
,,,0.0023999999,-3.2,
,,,0.00248,-2.4,
,,,0.00256,-1.6,
,,,0.0026399998,-1.6,
,,,0.00272,-1.6,
,,,0.0028,-1.6,
,,,0.00288,-0.8,
,,,0.00296,1.6,
,,,0.0030399999,0.8,
,,,0.00312,0.8,
,,,0.0032,0.0,
,,,0.0032799998,0.0,
,,,0.00336,0.0,
,,,0.00344,0.0,
,,,0.0035199998,-3.2,
,,,0.0036,-2.4,
,,,0.0036799998,-2.4,
,,,0.00376,-1.6,
,,,0.00384,-1.6,
,,,0.00392,-1.6,
,,,0.0039999997,-1.6,
,,,0.00408,13.2,
,,,0.00416,9.2,
,,,0.0042399997,7.6,
,,,0.00432,6.8,
,,,0.0044,6.8,
,,,0.0044799997,6.0,
,,,0.00456,6.0,
,,,0.00464,-14.8,
,,,0.00472,-9.6,
,,,0.0047999998,-8.0,
,,,0.00488,-7.2000003,
,,,0.00496,-6.4,
,,,0.0050399997,-5.6,
,,,0.00512,-5.6,
,,,0.0052,13.2,
,,,0.0052799997,8.400001,
,,,0.00536,6.8,
,,,0.00544,6.0,
,,,0.0055199997,5.2000003,
,,,0.0056,4.4,
,,,0.00568,4.4,
,,,0.00576,-12.400001,
,,,0.0058399998,-7.2000003,
,,,0.00592,-5.6,
,,,0.006,-4.8,
,,,0.0060799997,-4.0,
,,,0.00616,-4.0,
,,,0.00624,-4.0,
,,,0.0063199997,8.400001,
,,,0.0064,6.8,
,,,0.00648,4.4,
,,,0.0065599997,4.4,
,,,0.00664,3.2,
,,,0.00672,2.4,
,,,0.0067999996,2.4,
,,,0.00688,2.4,
,,,0.00696,-8.0,
,,,0.0070399996,-4.8,
,,,0.0071199997,-4.0,
,,,0.0072,-4.0,
,,,0.00728,-3.2,
,,,0.0073599997,-3.2,
,,,0.00744,-3.2,
,,,0.00752,5.2000003,
,,,0.0075999997,3.2,
,,,0.00768,2.4,
,,,0.00776,1.6,
,,,0.00784,1.6,
,,,0.00792,0.8,
,,,0.007999999,0.8,
,,,0.00808,0.8,
,,,0.00816,-5.6,
,,,0.008239999,-4.0,
,,,0.00832,-3.2,
,,,0.0084,-3.2,
,,,0.008479999,-3.2,
,,,0.00856,-2.4,
,,,0.00864,-2.4,
,,,0.008719999,2.4,
,,,0.0088,0.8,
,,,0.00888,0.8,
,,,0.008959999,0.8,
,,,0.00904,0.0,
,,,0.00912,0.0,
,,,0.0092,0.0,
,,,0.00928,-4.0,
,,,0.00936,-3.2,
,,,0.00944,-2.4,
,,,0.00952,-2.4,
,,,0.0095999995,-2.4,
,,,0.00968,-1.6,
,,,0.00976,-2.4,
,,,0.0098399995,-1.6,
,,,0.00992,0.8,
,,,0.01,0.0,
,,,0.010079999,0.0,
,,,0.01016,0.0,
,,,0.01024,0.0,
,,,0.010319999,0.0,
,,,0.0104,0.0,
,,,0.01048,-3.2,
,,,0.010559999,-2.4,
,,,0.01064,-2.4,
,,,0.01072,-2.4,
,,,0.010799999,-2.4,
,,,0.01088,-2.4,
,,,0.01096,-2.4,
,,,0.011039999,0.8,
,,,0.01112,0.8,
,,,0.0112,0.0,
,,,0.011279999,0.0,
,,,0.01136,0.0,
,,,0.01144,-0.8,
,,,0.01152,-0.8,
,,,0.0116,-0.8,
,,,0.0116799995,-3.2,
,,,0.01176,-3.2,
,,,0.01184,-2.4,
,,,0.0119199995,-2.4,
,,,0.012,-2.4,
,,,0.01208,-2.4,
,,,0.012159999,-2.4,
,,,0.01224,0.8,
,,,0.01232,0.0,
,,,0.012399999,0.0,
,,,0.01248,0.0,
,,,0.01256,0.0,
,,,0.012639999,-0.8,
,,,0.01272,-0.8,
,,,0.0128,-3.2,
,,,0.012879999,-3.2,
,,,0.01296,-3.2,
,,,0.01304,-3.2,
,,,0.013119999,-3.2,
,,,0.0132,-3.2,
,,,0.01328,-3.2,
,,,0.013359999,14.8,
,,,0.01344,9.2,
,,,0.01352,7.6,
,,,0.013599999,6.8,
,,,0.01368,6.0,
,,,0.01376,5.2000003,
,,,0.013839999,5.2000003,
,,,0.01392,-16.4,
,,,0.0139999995,-10.8,
,,,0.014079999,-8.0,
,,,0.01416,-7.2000003,
,,,0.014239999,-7.2000003,
,,,0.01432,-6.4,
,,,0.0144,-6.4,
,,,0.014479999,13.2,
,,,0.01456,8.400001,
,,,0.01464,6.8,
,,,0.014719999,6.0,
,,,0.0148,5.2000003,
,,,0.01488,4.4,
,,,0.014959999,4.4,
,,,0.01504,-12.400001,
,,,0.01512,-10.8,
,,,0.015199999,-7.2000003,
,,,0.01528,-6.4,
,,,0.01536,-5.6,
,,,0.015439999,-4.8,
,,,0.01552,-4.8,
,,,0.0156,-4.8,
,,,0.01568,7.6,
,,,0.015759999,4.4,
,,,0.01584,3.2,
,,,0.01592,2.4,
,,,0.015999999,2.4,
,,,0.01608,1.6,
,,,0.01616,1.6,
,,,0.016239999,-7.2000003,
,,,0.01632,-5.6,
,,,0.0164,-4.8,
,,,0.016479999,-4.0,
,,,0.01656,-4.0,
,,,0.01664,-3.2,
,,,0.016719999,-3.2,
,,,0.0168,-3.2,
,,,0.01688,2.4,
,,,0.016959999,1.6,
,,,0.01704,0.8,
,,,0.01712,0.8,
,,,0.017199999,0.8,
,,,0.01728,0.8,
,,,0.01736,0.0,
,,,0.017439999,-5.6,
,,,0.01752,-4.0,
,,,0.0176,-3.2,
,,,0.017679999,-3.2,
,,,0.01776,-3.2,
,,,0.01784,-3.2,
,,,0.017919999,-3.2,
,,,0.018,2.4,
,,,0.01808,0.8,
,,,0.01816,0.0,
,,,0.01824,0.0,
,,,0.01832,0.0,
,,,0.0184,0.0,
,,,0.01848,0.0,
,,,0.01856,-4.0,
,,,0.01864,-3.2,
,,,0.01872,-2.4,
,,,0.0188,-2.4,
,,,0.01888,-2.4,
,,,0.01896,-2.4,
,,,0.01904,-2.4,
,,,0.01912,-2.4,
,,,0.019199999,0.8,
,,,0.01928,0.0,
,,,0.01936,0.0,
,,,0.019439999,0.0,
,,,0.01952,-0.8,
,,,0.0196,-0.8,
,,,0.019679999,0.0,
,,,0.01976,-3.2,
,,,0.01984,-2.4,
,,,0.019919999,-2.4,
,,,0.02,-2.4,
,,,0.02008,-2.4,
,,,0.020159999,-2.4,
,,,0.02024,-2.4,
,,,0.02032,0.8,
,,,0.020399999,0.8,
,,,0.02048,0.0,
,,,0.02056,0.0,
,,,0.020639999,0.0,
,,,0.02072,0.0,
,,,0.0208,0.0,
,,,0.020879999,0.0,
,,,0.02096,-3.2,
,,,0.02104,-2.4,
,,,0.021119999,-1.6,
,,,0.0212,-1.6,
,,,0.02128,-1.6,
,,,0.021359999,-0.8,
,,,0.02144,-0.8,
,,,0.02152,0.8,
,,,0.021599999,0.8,
,,,0.02168,0.8,
,,,0.02176,0.0,
,,,0.021839999,0.0,
,,,0.02192,0.0,
,,,0.022,0.0,
,,,0.022079999,-3.2,
,,,0.02216,-3.2,
,,,0.02224,-2.4,
,,,0.022319999,-2.4,
,,,0.0224,-2.4,
,,,0.02248,-1.6,
,,,0.022559999,-1.6,
,,,0.02264,16.4,
,,,0.02272,12.400001,
,,,0.022799999,9.2,
,,,0.02288,8.400001,
,,,0.02296,7.6,
,,,0.02304,6.8,
,,,0.02312,6.8,
,,,0.0232,-18.800001,
,,,0.02328,-12.400001,
,,,0.023359999,-9.6,
,,,0.02344,-8.0,
,,,0.02352,-7.2000003,
,,,0.023599999,-7.2000003,
,,,0.02368,-6.4,
,,,0.02376,13.2,
,,,0.023839999,7.6,
,,,0.02392,5.2000003,
,,,0.024,4.4,
,,,0.024079999,3.2,
,,,0.02416,2.4,
,,,0.02424,2.4,
,,,0.024319999,2.4,
,,,0.0244,-11.6,
,,,0.02448,-8.0,
,,,0.024559999,-6.4,
,,,0.02464,-5.6,
,,,0.02472,-5.6,
,,,0.024799999,-4.8,
,,,0.02488,-4.8,
,,,0.02496,7.6,
,,,0.025039999,3.2,
,,,0.02512,2.4,
,,,0.0252,1.6,
,,,0.025279999,1.6,
,,,0.02536,1.6,
,,,0.02544,0.8,
,,,0.025519999,-8.0,
,,,0.0256,-6.4,
,,,0.02568,-4.8,
,,,0.025759999,-4.8,
,,,0.02584,-4.0,
,,,0.02592,-4.0,
,,,0.025999999,-4.0,
,,,0.02608,-3.2,
,,,0.02616,3.2,
,,,0.026239999,1.6,
,,,0.02632,0.8,
,,,0.0264,0.8,
,,,0.026479999,0.8,
,,,0.02656,0.0,
,,,0.02664,0.0,
,,,0.026719999,-5.6,
,,,0.0268,-4.0,
,,,0.02688,-3.2,
,,,0.026959999,-3.2,
,,,0.02704,-3.2,
,,,0.02712,-3.2,
,,,0.027199998,-2.4,
,,,0.02728,2.4,
,,,0.02736,0.8,
,,,0.027439998,0.0,
,,,0.02752,0.0,
,,,0.0276,0.0,
,,,0.027679998,0.0,
,,,0.027759999,0.0,
,,,0.02784,-4.0,
,,,0.027919998,-3.2,
,,,0.027999999,-3.2,
,,,0.02808,-2.4,
,,,0.028159998,-2.4,
,,,0.028239999,-2.4,
,,,0.02832,-2.4,
,,,0.0284,-2.4,
,,,0.028479999,0.8,
,,,0.02856,0.0,
,,,0.02864,0.0,
,,,0.028719999,0.0,
,,,0.0288,-0.8,
,,,0.02888,-0.8,
,,,0.028959999,-0.8,
,,,0.02904,-3.2,
,,,0.02912,-3.2,
,,,0.029199999,-2.4,
,,,0.02928,-2.4,
,,,0.02936,-2.4,
,,,0.029439999,-2.4,
,,,0.02952,-2.4,
,,,0.0296,-2.4,
,,,0.029679999,0.8,
,,,0.02976,0.0,
,,,0.02984,0.0,
,,,0.029919999,0.0,
,,,0.03,0.0,
,,,0.03008,0.0,
,,,0.030159999,0.0,
,,,0.03024,-3.2,
,,,0.03032,-3.2,
,,,0.030399999,-2.4,
,,,0.03048,-2.4,
,,,0.03056,-2.4,
,,,0.030639999,-2.4,
,,,0.03072,-2.4,
,,,0.0308,-1.6,
,,,0.030879999,0.8,
,,,0.03096,0.0,
,,,0.03104,-0.8,
,,,0.031119999,-0.8,
,,,0.0312,-0.8,
,,,0.03128,-0.8,
,,,0.03136,-0.8,
,,,0.03144,-3.2,
,,,0.031519998,-3.2,
,,,0.0316,-3.2,
,,,0.03168,-3.2,
,,,0.03176,-3.2,
,,,0.03184,-3.2,
,,,0.03192,15.6,
,,,0.031999998,10.0,
,,,0.03208,6.8,
,,,0.03216,6.0,
,,,0.03224,5.2000003,
,,,0.03232,4.4,
,,,0.0324,4.4,
,,,0.032479998,-19.6,
,,,0.03256,-14.0,
,,,0.03264,-11.6,
,,,0.03272,-9.6,
,,,0.0328,-8.8,
,,,0.03288,-8.8,
,,,0.032959998,-8.8,
,,,0.03304,10.8,
,,,0.03312,7.6,
,,,0.0332,4.4,
,,,0.03328,3.2,
,,,0.03336,2.4,
,,,0.033439998,2.4,
,,,0.03352,1.6,
,,,0.0336,1.6,
,,,0.03368,-11.6,
,,,0.03376,-8.0,
,,,0.03384,-7.2000003,
,,,0.033919998,-6.4,
,,,0.033999998,-5.6,
,,,0.03408,-5.6,
,,,0.03416,-5.6,
,,,0.03424,7.6,
,,,0.03432,3.2,
,,,0.034399997,1.6,
,,,0.034479998,1.6,
,,,0.03456,0.8,
,,,0.03464,0.8,
,,,0.03472,0.0,
,,,0.0348,-8.0,
,,,0.034879997,-6.4,
,,,0.034959998,-4.8,
,,,0.03504,-4.8,
,,,0.03512,-4.8,
,,,0.0352,-4.0,
,,,0.03528,-4.0,
,,,0.035359997,-4.0,
,,,0.035439998,2.4,
,,,0.03552,0.8,
,,,0.0356,0.8,
,,,0.03568,0.8,
,,,0.03576,0.0,
,,,0.035839997,0.0,
,,,0.035919998,0.0,
,,,0.036,-4.8,
,,,0.03608,-4.0,
,,,0.03616,-4.0,
,,,0.03624,-3.2,
,,,0.03632,-3.2,
,,,0.036399998,-3.2,
,,,0.03648,-3.2,
,,,0.03656,2.4,
,,,0.03664,1.6,
,,,0.03672,0.8,
,,,0.0368,0.8,
,,,0.036879998,0.0,
,,,0.03696,0.0,
,,,0.03704,0.0,
,,,0.03712,0.0,
,,,0.0372,-3.2,
,,,0.03728,-2.4,
,,,0.037359998,-2.4,
,,,0.03744,-2.4,
,,,0.03752,-2.4,
,,,0.0376,-2.4,
,,,0.03768,-1.6,
,,,0.03776,0.8,
,,,0.037839998,0.8,
,,,0.03792,0.0,
,,,0.038,0.0,
,,,0.03808,0.0,
,,,0.03816,0.0,
,,,0.03824,-0.8,
,,,0.038319997,-3.2,
,,,0.038399998,-2.4,
,,,0.03848,-2.4,
,,,0.03856,-1.6,
,,,0.03864,-1.6,
,,,0.03872,-1.6,
,,,0.038799997,-2.4,
,,,0.038879998,-1.6,
,,,0.03896,0.8,
,,,0.03904,0.0,
,,,0.03912,0.0,
,,,0.0392,0.0,
,,,0.039279997,0.0,
,,,0.039359998,0.0,
,,,0.03944,0.0,
,,,0.03952,-3.2,
,,,0.0396,-3.2,
,,,0.03968,-2.4,
,,,0.039759997,-2.4,
,,,0.039839998,-2.4,
,,,0.03992,-2.4,
,,,0.04,-1.6,
,,,0.04008,-2.4,
,,,0.04016,0.8,
,,,0.040239997,0.0,
,,,0.040319998,0.0,
,,,0.0404,0.0,
,,,0.04048,-0.8,
,,,0.04056,-0.8,
,,,0.04064,-0.8,
,,,0.040719997,-3.2,
,,,0.040799998,-2.4,
,,,0.04088,-2.4,
,,,0.04096,-2.4,
,,,0.04104,-2.4,
,,,0.04112,-1.6,
,,,0.0412,-1.6,
,,,0.041279998,11.6,
,,,0.04136,8.400001,
,,,0.04144,7.6,
,,,0.04152,6.0,
,,,0.0416,6.0,
,,,0.04168,5.2000003,
,,,0.041759998,-20.4,
,,,0.04184,-14.0,
,,,0.04192,-11.6,
,,,0.042,-9.6,
,,,0.04208,-8.8,
,,,0.04216,-7.2000003,
,,,0.042239998,-6.4,
,,,0.04232,-6.4,
,,,0.0424,8.400001,
,,,0.04248,6.0,
,,,0.04256,4.4,
,,,0.04264,3.2,
,,,0.042719997,3.2,
,,,0.042799998,2.4,
,,,0.04288,2.4,
,,,0.04296,-12.400001,
,,,0.04304,-8.8,
,,,0.04312,-7.2000003,
,,,0.043199997,-6.4,
,,,0.043279998,-5.6,
,,,0.04336,-4.8,
,,,0.04344,-4.8,
,,,0.04352,8.400001,
,,,0.0436,6.0,
,,,0.043679997,4.4,
,,,0.043759998,3.2,
,,,0.04384,2.4,
,,,0.04392,2.4,
,,,0.044,2.4,
,,,0.04408,1.6,
,,,0.044159997,-7.2000003,
,,,0.044239998,-4.8,
,,,0.04432,-4.0,
,,,0.0444,-4.0,
,,,0.04448,-3.2,
,,,0.04456,-3.2,
,,,0.044639997,-3.2,
,,,0.044719998,5.2000003,
,,,0.0448,3.2,
,,,0.04488,2.4,
,,,0.04496,1.6,
,,,0.04504,1.6,
,,,0.045119997,1.6,
,,,0.045199998,0.8,
,,,0.04528,-6.4,
,,,0.04536,-4.0,
,,,0.04544,-3.2,
,,,0.04552,-3.2,
,,,0.045599997,-2.4,
,,,0.045679998,-2.4,
,,,0.04576,-2.4,
,,,0.04584,2.4,
,,,0.04592,2.4,
,,,0.046,1.6,
,,,0.04608,0.8,
,,,0.046159998,0.8,
,,,0.04624,0.8,
,,,0.04632,0.8,
,,,0.0464,0.0,
,,,0.04648,-4.8,
,,,0.04656,-3.2,
,,,0.046639998,-2.4,
,,,0.046719998,-2.4,
,,,0.0468,-2.4,
,,,0.04688,-1.6,
,,,0.04696,-2.4,
,,,0.04704,1.6,
,,,0.047119997,0.8,
,,,0.047199998,0.8,
,,,0.04728,0.0,
,,,0.04736,0.0,
,,,0.04744,0.0,
,,,0.04752,0.0,
,,,0.047599997,-3.2,
,,,0.047679998,-2.4,
,,,0.04776,-2.4,
,,,0.04784,-1.6,
,,,0.04792,-1.6,
,,,0.048,-1.6,
,,,0.048079997,-1.6,
,,,0.048159998,-1.6,
,,,0.04824,0.8,
,,,0.04832,0.0,
,,,0.0484,0.0,
,,,0.04848,0.0,
,,,0.048559997,0.0,
,,,0.048639998,0.0,
,,,0.04872,-0.8,
,,,0.0488,-3.2,
,,,0.04888,-2.4,
,,,0.04896,-2.4,
,,,0.049039997,-2.4,
,,,0.049119998,-1.6,
,,,0.0492,-1.6,
,,,0.04928,-1.6,
,,,0.04936,-2.4,
,,,0.04944,0.8,
,,,0.049519997,0.0,
,,,0.049599998,0.0,
,,,0.04968,0.0,
,,,0.04976,0.0,
,,,0.04984,0.0,
,,,0.04992,0.0,
,,,0.049999997,-3.2,
,,,0.050079998,-2.4,
,,,0.05016,-2.4,
,,,0.05024,-2.4,
,,,0.05032,-2.4,
,,,0.0504,-1.6,
,,,0.050479997,-1.6,
,,,0.050559998,14.8,
,,,0.05064,10.0,
,,,0.05072,8.400001,
,,,0.0508,6.8,
,,,0.05088,6.0,
,,,0.050959997,5.2000003,
,,,0.051039997,5.2000003,
,,,0.051119998,-14.0,
,,,0.0512,-10.8,
,,,0.05128,-8.8,
,,,0.05136,-8.0,
,,,0.05144,-7.2000003,
,,,0.051519997,-7.2000003,
,,,0.051599998,-7.2000003,
,,,0.05168,13.2,
,,,0.05176,7.6,
,,,0.05184,6.0,
,,,0.05192,5.2000003,
,,,0.051999997,5.2000003,
,,,0.052079998,4.4,
,,,0.05216,4.4,
,,,0.05224,-12.400001,
,,,0.05232,-7.2000003,
,,,0.0524,-6.4,
,,,0.052479997,-5.6,
,,,0.052559998,-4.8,
,,,0.05264,-4.8,
,,,0.05272,-4.8,
,,,0.0528,8.400001,
,,,0.05288,6.0,
,,,0.052959997,4.4,
,,,0.053039998,3.2,
,,,0.05312,2.4,
,,,0.0532,2.4,
,,,0.05328,1.6,
,,,0.05336,1.6,
,,,0.053439997,-6.4,
,,,0.053519998,-4.8,
,,,0.0536,-4.0,
,,,0.05368,-3.2,
,,,0.05376,-3.2,
,,,0.05384,-3.2,
,,,0.053919997,-3.2,
,,,0.053999998,4.4,
,,,0.05408,2.4,
,,,0.05416,1.6,
,,,0.05424,1.6,
,,,0.05432,0.8,
,,,0.054399997,0.8,
,,,0.054479998,0.8,
,,,0.05456,-4.8,
,,,0.05464,-4.0,
,,,0.05472,-3.2,
,,,0.0548,-2.4,
,,,0.054879997,-2.4,
,,,0.054959998,-2.4,
,,,0.05504,-2.4,
,,,0.05512,2.4,
,,,0.0552,1.6,
,,,0.05528,0.8,
,,,0.055359997,0.8,
,,,0.055439997,0.0,
,,,0.055519998,0.0,
,,,0.0556,0.0,
,,,0.05568,0.0,
,,,0.05576,-4.0,
,,,0.055839997,-2.4,
,,,0.055919997,-2.4,
,,,0.055999998,-2.4,
,,,0.05608,-1.6,
,,,0.05616,-1.6,
,,,0.05624,-1.6,
,,,0.056319997,0.8,
,,,0.056399997,0.8,
,,,0.056479998,0.0,
,,,0.05656,0.0,
,,,0.05664,0.0,
,,,0.05672,0.0,
,,,0.0568,0.0,
,,,0.056879997,0.0,
,,,0.056959998,-3.2,
,,,0.05704,-2.4,
,,,0.05712,-2.4,
,,,0.0572,-2.4,
,,,0.05728,-2.4,
,,,0.057359997,-2.4,
,,,0.057439998,-1.6,
,,,0.05752,0.8,
,,,0.0576,0.8,
,,,0.05768,0.0,
,,,0.05776,0.0,
,,,0.057839997,0.0,
,,,0.057919998,0.0,
,,,0.058,0.0,
,,,0.05808,0.0,
,,,0.05816,-2.4,
,,,0.05824,-2.4,
,,,0.058319997,-2.4,
,,,0.058399998,-1.6,
,,,0.05848,-1.6,
,,,0.05856,-1.6,
,,,0.05864,-1.6,
,,,0.05872,0.8,
,,,0.058799997,0.8,
,,,0.058879998,0.0,
,,,0.05896,0.0,
,,,0.05904,0.0,
,,,0.05912,0.0,
,,,0.0592,0.0,
,,,0.059279997,-3.2,
,,,0.059359998,-2.4,
,,,0.059439998,-2.4,
,,,0.05952,-1.6,
,,,0.0596,-1.6,
,,,0.05968,-1.6,
,,,0.059759997,-1.6,
,,,0.059839997,14.0,
,,,0.059919998,9.2,
,,,0.06,7.6,
,,,0.06008,6.8,
,,,0.06016,6.0,
,,,0.060239997,5.2000003,
,,,0.060319997,5.2000003,
,,,0.060399998,-14.8,
,,,0.06048,-10.8,
,,,0.06056,-8.8,
,,,0.06064,-8.0,
,,,0.060719997,-7.2000003,
,,,0.060799997,-6.4,
,,,0.060879998,-6.4,
,,,0.06096,14.0,
,,,0.06104,8.400001,
,,,0.06112,6.8,
,,,0.061199997,6.0,
,,,0.061279997,5.2000003,
,,,0.061359998,4.4,
,,,0.06144,4.4,
,,,0.06152,-13.2,
,,,0.0616,-8.0,
,,,0.06168,-5.6,
,,,0.061759997,-4.8,
,,,0.061839998,-4.0,
,,,0.06192,-4.0,
,,,0.062,-3.2,
,,,0.06208,9.2,
,,,0.06216,6.8,
,,,0.062239997,5.2000003,
,,,0.062319998,4.4,
,,,0.0624,3.2,
,,,0.06248,3.2,
,,,0.06256,2.4,
,,,0.06264,2.4,
,,,0.06272,-7.2000003,
,,,0.0628,-4.8,
,,,0.06288,-4.0,
,,,0.06296,-3.2,
,,,0.063039996,-2.4,
,,,0.06312,-2.4,
,,,0.0632,-1.6,
,,,0.06328,6.0,
,,,0.06336,4.4,
,,,0.063439995,3.2,
,,,0.06352,2.4,
,,,0.063599996,2.4,
,,,0.06368,1.6,
,,,0.06376,1.6,
,,,0.06384,-6.4,
,,,0.06392,-5.6,
,,,0.063999996,-4.0,
,,,0.06408,-3.2,
,,,0.06416,-3.2,
,,,0.06424,-3.2,
,,,0.06432,-2.4,
,,,0.064399995,-2.4,
,,,0.06448,3.2,
,,,0.064559996,1.6,
,,,0.06464,1.6,
,,,0.06472,0.8,
,,,0.0648,0.8,
,,,0.06488,0.8,
,,,0.064959995,0.8,
,,,0.06504,-4.8,
,,,0.06512,-4.0,
,,,0.0652,-3.2,
,,,0.06528,-2.4,
,,,0.065359995,-2.4,
,,,0.06544,-2.4,
,,,0.065519996,-2.4,
,,,0.0656,-2.4,
,,,0.06568,0.8,
,,,0.06576,0.8,
,,,0.06584,0.0,
,,,0.065919995,0.0,
,,,0.066,0.0,
,,,0.06608,0.0,
,,,0.06616,0.0,
,,,0.06624,-3.2,
,,,0.066319995,-2.4,
,,,0.0664,-2.4,
,,,0.066479996,-2.4,
,,,0.06656,-2.4,
,,,0.06664,-1.6,
,,,0.06672,-1.6,
,,,0.0668,0.8,
,,,0.066879995,0.8,
,,,0.06696,0.0,
,,,0.06704,0.0,
,,,0.06712,0.0,
,,,0.0672,0.0,
,,,0.06728,0.0,
,,,0.06736,0.0,
,,,0.067439996,-3.2,
,,,0.06752,-2.4,
,,,0.0676,-2.4,
,,,0.06768,-1.6,
,,,0.06776,-1.6,
,,,0.067839995,-1.6,
,,,0.06792,-1.6,
,,,0.067999996,0.8,
,,,0.06808,0.8,
,,,0.06816,0.0,
,,,0.06824,0.0,
,,,0.06832,0.0,
,,,0.068399996,0.0,
,,,0.06848,0.0,
,,,0.06856,-3.2,
,,,0.06864,-2.4,
,,,0.06872,-2.4,
,,,0.068799995,-2.4,
,,,0.06888,-1.6,
,,,0.068959996,-1.6,
,,,0.06904,-1.6,
,,,0.06912,11.6,
,,,0.0692,9.2,
,,,0.06928,6.8,
,,,0.069359995,6.0,
,,,0.06944,5.2000003,
,,,0.06952,4.4,
,,,0.0696,4.4,
,,,0.06968,-16.4,
,,,0.069759995,-11.6,
,,,0.06984,-9.6,
,,,0.069919996,-8.0,
,,,0.07,-8.0,
,,,0.07008,-7.2000003,
,,,0.07016,-6.4,
,,,0.07024,14.8,
,,,0.070319995,9.2,
,,,0.0704,7.6,
,,,0.07048,6.0,
,,,0.07056,5.2000003,
,,,0.07064,5.2000003,
,,,0.070719995,4.4,
,,,0.0708,-14.0,
,,,0.070879996,-10.8,
,,,0.07096,-8.0,
,,,0.07104,-6.4,
,,,0.07112,-5.6,
,,,0.0712,-5.6,
,,,0.071279995,-5.6,
,,,0.07136,7.6,
,,,0.07144,7.6,
,,,0.07152,4.4,
,,,0.0716,3.2,
,,,0.071679994,2.4,
,,,0.07176,2.4,
,,,0.071839996,2.4,
,,,0.07192,1.6,
,,,0.072,-8.0,
,,,0.07208,-6.4,
,,,0.07216,-4.8,
,,,0.072239995,-4.8,
,,,0.07232,-4.8,
,,,0.072399996,-4.0,
,,,0.07248,-4.0,
,,,0.07256,4.4,
,,,0.07264,2.4,
,,,0.07272,0.8,
,,,0.072799996,0.8,
,,,0.07288,0.8,
,,,0.07296,0.0,
,,,0.07304,0.0,
,,,0.07312,0.0,
,,,0.073199995,-4.8,
,,,0.07328,-4.0,
,,,0.073359996,-4.0,
,,,0.07344,-3.2,
,,,0.07352,-3.2,
,,,0.0736,-3.2,
,,,0.07368,-3.2,
,,,0.073759995,1.6,
,,,0.07384,0.8,
,,,0.07392,0.0,
,,,0.074,0.0,
,,,0.07408,0.0,
,,,0.074159995,-0.8,
,,,0.07424,-0.8,
,,,0.074319996,-3.2,
,,,0.0744,-3.2,
,,,0.07448,-3.2,
,,,0.07456,-2.4,
,,,0.07464,-2.4,
,,,0.074719995,-2.4,
,,,0.0748,-2.4,
,,,0.07488,-2.4,
,,,0.07496,0.8,
,,,0.07504,0.0,
,,,0.075119995,0.0,
,,,0.0752,-0.8,
,,,0.075279996,-0.8,
,,,0.07536,-0.8,
,,,0.07544,-0.8,
,,,0.07552,-3.2,
,,,0.0756,-2.4,
,,,0.075679995,-2.4,
,,,0.07576,-2.4,
,,,0.07584,-2.4,
,,,0.07592,-2.4,
,,,0.076,-2.4,
,,,0.076079994,0.8,
,,,0.07616,0.8,
,,,0.076239996,0.0,
,,,0.07632,0.0,
,,,0.0764,0.0,
,,,0.07648,0.0,
,,,0.07656,-0.8,
,,,0.076639995,-0.8,
,,,0.07672,-3.2,
,,,0.076799996,-2.4,
,,,0.07688,-2.4,
,,,0.07696,-2.4,
,,,0.07704,-1.6,
,,,0.07712,-1.6,
,,,0.077199996,-1.6,
,,,0.07728,0.8,
,,,0.07736,0.8,
,,,0.07744,0.0,
,,,0.07752,0.0,
,,,0.077599995,0.0,
,,,0.07768,0.0,
,,,0.077759996,-0.8,
,,,0.07784,-3.2,
,,,0.07792,-3.2,
,,,0.078,-2.4,
,,,0.07808,-2.4,
,,,0.078159995,-2.4,
,,,0.07824,-2.4,
,,,0.07832,-2.4,
,,,0.0784,11.6,
,,,0.07848,10.0,
,,,0.078559995,7.6,
,,,0.07864,6.0,
,,,0.078719996,5.2000003,
,,,0.0788,5.2000003,
,,,0.07888,4.4,
,,,0.07896,-18.800001,
,,,0.07904,-13.2,
,,,0.079119995,-10.8,
,,,0.0792,-9.6,
,,,0.07928,-8.0,
,,,0.07936,-8.0,
,,,0.07944,-7.2000003,
,,,0.079519995,13.2,
,,,0.0796,7.6,
,,,0.079679996,5.2000003,
,,,0.07976,4.4,
,,,0.07984,3.2,
,,,0.07992,2.4,
,,,0.08,2.4,
,,,0.080079995,-12.400001,
,,,0.08016,-10.8,
,,,0.08024,-8.0,
,,,0.08032,-6.4,
,,,0.0804,-6.4,
,,,0.080479994,-5.6,
,,,0.08056,-5.6,
,,,0.080639996,-4.8,
,,,0.08072,7.6,
,,,0.0808,3.2,
,,,0.08088,2.4,
,,,0.08096,1.6,
,,,0.081039995,1.6,
,,,0.08112,0.8,
,,,0.081199996,0.8,
,,,0.08128,-8.0,
,,,0.08136,-6.4,
,,,0.081439994,-4.8,
,,,0.08152,-4.8,
,,,0.081599995,-4.0,
,,,0.08168,-3.2,
,,,0.08176,-3.2,
,,,0.08184,4.4,
,,,0.08192,3.2,
,,,0.081999995,1.6,
,,,0.08208,0.8,
,,,0.082159996,0.8,
,,,0.08224,0.8,
,,,0.08232,0.8,
,,,0.0824,0.8,
,,,0.08248,-5.6,
,,,0.082559995,-4.0,
,,,0.08264,-4.0,
,,,0.08272,-3.2,
,,,0.0828,-2.4,
,,,0.08288,-2.4,
,,,0.082959995,-1.6,
,,,0.08304,3.2,
,,,0.083119996,1.6,
,,,0.0832,0.8,
,,,0.08328,0.8,
,,,0.08336,0.8,
,,,0.08344,0.0,
,,,0.083519995,0.0,
,,,0.0836,-4.8,
,,,0.08368,-4.0,
,,,0.08376,-3.2,
,,,0.08384,-3.2,
,,,0.083919995,-2.4,
,,,0.084,-2.4,
,,,0.084079996,-2.4,
,,,0.08416,-2.4,
,,,0.08424,1.6,
,,,0.08432,0.8,
,,,0.0844,0.0,
,,,0.084479995,0.0,
,,,0.08456,0.0,
,,,0.08464,0.0,
,,,0.08472,0.0,
,,,0.0848,-4.0,
,,,0.084879994,-3.2,
,,,0.08496,-2.4,
,,,0.085039996,-2.4,
,,,0.08512,-2.4,
,,,0.0852,-2.4,
,,,0.08528,-2.4,
,,,0.08536,0.8,
,,,0.085439995,0.8,
,,,0.08552,0.8,
,,,0.085599996,0.0,
,,,0.08568,0.0,
,,,0.08576,0.0,
,,,0.085839994,0.0,
,,,0.08592,0.0,
,,,0.085999995,-3.2,
,,,0.08608,-3.2,
,,,0.08616,-2.4,
,,,0.08624,-2.4,
,,,0.08632,-2.4,
,,,0.086399995,-2.4,
,,,0.08648,-1.6,
,,,0.086559996,0.8,
,,,0.08664,0.0,
,,,0.08672,0.0,
,,,0.086799994,0.0,
,,,0.08688,0.0,
,,,0.086959995,-0.8,
,,,0.08704,-0.8,
,,,0.08712,-0.8,
,,,0.0872,-3.2,
,,,0.08728,-2.4,
,,,0.087359995,-2.4,
,,,0.08744,-2.4,
,,,0.087519996,-2.4,
,,,0.0876,-2.4,
,,,0.08768,-2.4,
,,,0.08776,10.8,
,,,0.08784,7.6,
,,,0.087919995,6.0,
