data/2112220051.csv

ProID,Info,,time,Value,
GenTime,2021-12-22 20:45:35,,0.0,-0.8,
Record Length,87500 Points,,8.0E-5,-3.2,
Sample Interval,8.0E-5 s,,1.6E-4,-3.2,
Trigger Time,0s,,2.4E-4,-2.4,
Source,CH2,,3.2E-4,-2.4,
Vertical Units,(V)/grid,,4.0E-4,-2.4,
Vertical Scale,20.0,,4.8E-4,-1.6,
Vertical Offset,-44,,5.5999996E-4,-1.6,
Horizontal Units,s/grid,,6.4E-4,-1.6,
Horizontal Scale,0.5,,7.2E-4,0.8,
Probe Atten,10.0,,8.0E-4,0.0,
,,,8.7999995E-4,0.0,
,,,9.6E-4,0.0,
,,,0.00104,0.0,
,,,0.0011199999,-0.8,
,,,0.0011999999,-0.8,
,,,0.00128,-3.2,
,,,0.00136,-3.2,
,,,0.00144,-2.4,
,,,0.0015199999,-2.4,
,,,0.0016,-2.4,
,,,0.00168,-1.6,
,,,0.0017599999,-1.6,
,,,0.0018399999,-1.6,
,,,0.00192,0.8,
,,,0.0019999999,0.0,
,,,0.00208,0.0,
,,,0.00216,-0.8,
,,,0.0022399998,-0.8,
,,,0.00232,-0.8,
,,,0.0023999999,-14.8,
,,,0.00248,-14.0,
,,,0.00256,-9.6,
,,,0.0026399998,-8.0,
,,,0.00272,-7.2000003,
,,,0.0028,-7.2000003,
,,,0.00288,-6.4,
,,,0.00296,17.2,
,,,0.0030399999,10.0,
,,,0.00312,6.8,
,,,0.0032,6.0,
,,,0.0032799998,5.2000003,
,,,0.00336,4.4,
,,,0.00344,3.2,
,,,0.0035199998,-14.8,
,,,0.0036,-11.6,
,,,0.0036799998,-7.2000003,
,,,0.00376,-5.6,
,,,0.00384,-5.6,
,,,0.00392,-4.8,
,,,0.0039999997,-4.0,
,,,0.00408,8.400001,
,,,0.00416,7.6,
,,,0.0042399997,4.4,
,,,0.00432,2.4,
,,,0.0044,2.4,
,,,0.0044799997,1.6,
,,,0.00456,1.6,
,,,0.00464,1.6,
,,,0.00472,-8.0,
,,,0.0047999998,-5.6,
,,,0.00488,-4.8,
,,,0.00496,-4.0,
,,,0.0050399997,-3.2,
,,,0.00512,-3.2,
,,,0.0052,-3.2,
,,,0.0052799997,5.2000003,
,,,0.00536,2.4,
,,,0.00544,1.6,
,,,0.0055199997,0.8,
,,,0.0056,0.8,
,,,0.00568,0.8,
,,,0.00576,0.8,
,,,0.0058399998,0.0,
,,,0.00592,-5.6,
,,,0.006,-4.0,
,,,0.0060799997,-3.2,
,,,0.00616,-2.4,
,,,0.00624,-2.4,
,,,0.0063199997,-2.4,
,,,0.0064,-2.4,
,,,0.00648,2.4,
,,,0.0065599997,0.8,
,,,0.00664,0.8,
,,,0.00672,0.0,
,,,0.0067999996,0.0,
,,,0.00688,0.0,
,,,0.00696,0.0,
,,,0.0070399996,-4.0,
,,,0.0071199997,-3.2,
,,,0.0072,-2.4,
,,,0.00728,-2.4,
,,,0.0073599997,-2.4,
,,,0.00744,-1.6,
,,,0.00752,-1.6,
,,,0.0075999997,-1.6,
,,,0.00768,0.8,
,,,0.00776,0.0,
,,,0.00784,0.0,
,,,0.00792,0.0,
,,,0.007999999,0.0,
,,,0.00808,-0.8,
,,,0.00816,-0.8,
,,,0.008239999,-3.2,
,,,0.00832,-2.4,
,,,0.0084,-2.4,
,,,0.008479999,-1.6,
,,,0.00856,-1.6,
,,,0.00864,-1.6,
,,,0.008719999,-1.6,
,,,0.0088,0.8,
,,,0.00888,0.8,
,,,0.008959999,0.0,
,,,0.00904,0.0,
,,,0.00912,0.0,
,,,0.0092,0.0,
,,,0.00928,-0.8,
,,,0.00936,-0.8,
,,,0.00944,-3.2,
,,,0.00952,-2.4,
,,,0.0095999995,-2.4,
,,,0.00968,-2.4,
,,,0.00976,-1.6,
,,,0.0098399995,-1.6,
,,,0.00992,-1.6,
,,,0.01,0.8,
,,,0.010079999,0.8,
,,,0.01016,0.0,
,,,0.01024,0.0,
,,,0.010319999,0.0,
,,,0.0104,-0.8,
,,,0.01048,-0.8,
,,,0.010559999,-3.2,
,,,0.01064,-3.2,
,,,0.01072,-2.4,
,,,0.010799999,-2.4,
,,,0.01088,-2.4,
,,,0.01096,-2.4,
,,,0.011039999,-1.6,
,,,0.01112,-1.6,
,,,0.0112,0.8,
,,,0.011279999,0.0,
,,,0.01136,0.0,
,,,0.01144,0.0,
,,,0.01152,0.0,
,,,0.0116,-0.8,
,,,0.0116799995,-0.8,
,,,0.01176,-14.0,
,,,0.01184,-8.8,
,,,0.0119199995,-7.2000003,
,,,0.012,-6.4,
,,,0.01208,-6.4,
,,,0.012159999,-5.6,
,,,0.01224,17.2,
,,,0.01232,10.0,
,,,0.012399999,7.6,
,,,0.01248,6.0,
,,,0.01256,5.2000003,
,,,0.012639999,4.4,
,,,0.01272,3.2,
,,,0.0128,-15.6,
,,,0.012879999,-11.6,
,,,0.01296,-7.2000003,
,,,0.01304,-6.4,
,,,0.013119999,-5.6,
,,,0.0132,-4.8,
,,,0.01328,-4.8,
,,,0.013359999,-4.0,
,,,0.01344,7.6,
,,,0.01352,4.4,
,,,0.013599999,3.2,
,,,0.01368,2.4,
,,,0.01376,1.6,
,,,0.013839999,1.6,
,,,0.01392,1.6,
,,,0.0139999995,-8.0,
,,,0.014079999,-5.6,
,,,0.01416,-4.8,
,,,0.014239999,-4.0,
,,,0.01432,-4.0,
,,,0.0144,-4.0,
,,,0.014479999,-3.2,
,,,0.01456,-4.0,
,,,0.01464,3.2,
,,,0.014719999,1.6,
,,,0.0148,0.8,
,,,0.01488,0.8,
,,,0.014959999,0.0,
,,,0.01504,0.0,
,,,0.01512,0.0,
,,,0.015199999,-4.0,
,,,0.01528,-3.2,
,,,0.01536,-3.2,
,,,0.015439999,-3.2,
,,,0.01552,-3.2,
,,,0.0156,-3.2,
,,,0.01568,-3.2,
,,,0.015759999,0.8,
,,,0.01584,0.0,
,,,0.01592,0.0,
,,,0.015999999,0.0,
,,,0.01608,-0.8,
,,,0.01616,-0.8,
,,,0.016239999,-0.8,
,,,0.01632,-3.2,
,,,0.0164,-3.2,
,,,0.016479999,-2.4,
,,,0.01656,-2.4,
,,,0.01664,-2.4,
,,,0.016719999,-2.4,
,,,0.0168,-2.4,
,,,0.01688,-2.4,
,,,0.016959999,0.8,
,,,0.01704,0.0,
,,,0.01712,0.0,
,,,0.017199999,0.0,
,,,0.01728,-0.8,
,,,0.01736,-0.8,
,,,0.017439999,-0.8,
,,,0.01752,-3.2,
,,,0.0176,-2.4,
,,,0.017679999,-2.4,
,,,0.01776,-2.4,
,,,0.01784,-2.4,
,,,0.017919999,-1.6,
,,,0.018,-1.6,
,,,0.01808,0.8,
,,,0.01816,0.8,
,,,0.01824,0.0,
,,,0.01832,0.0,
,,,0.0184,0.0,
,,,0.01848,-0.8,
,,,0.01856,-0.8,
,,,0.01864,-0.8,
,,,0.01872,-3.2,
,,,0.0188,-2.4,
,,,0.01888,-2.4,
,,,0.01896,-2.4,
,,,0.01904,-1.6,
,,,0.01912,-1.6,
,,,0.019199999,-1.6,
,,,0.01928,0.8,
,,,0.01936,0.8,
,,,0.019439999,0.0,
,,,0.01952,0.0,
,,,0.0196,0.0,
,,,0.019679999,-0.8,
,,,0.01976,-0.8,
,,,0.01984,-2.4,
,,,0.019919999,-3.2,
,,,0.02,-2.4,
,,,0.02008,-2.4,
,,,0.020159999,-2.4,
,,,0.02024,-2.4,
,,,0.02032,-1.6,
,,,0.020399999,-1.6,
,,,0.02048,0.8,
,,,0.02056,0.0,
,,,0.020639999,0.0,
,,,0.02072,0.0,
,,,0.0208,0.0,
,,,0.020879999,-0.8,
,,,0.02096,-0.8,
,,,0.02104,-12.400001,
,,,0.021119999,-7.2000003,
,,,0.0212,-6.4,
,,,0.02128,-5.6,
,,,0.021359999,-4.8,
,,,0.02144,-4.8,
,,,0.02152,18.4,
,,,0.021599999,15.6,
,,,0.02168,9.2,
,,,0.02176,6.8,
,,,0.021839999,6.0,
,,,0.02192,5.2000003,
,,,0.022,5.2000003,
,,,0.022079999,4.4,
,,,0.02216,-13.2,
,,,0.02224,-8.0,
,,,0.022319999,-5.6,
,,,0.0224,-5.6,
,,,0.02248,-4.8,
,,,0.022559999,-4.0,
,,,0.02264,-4.0,
,,,0.02272,8.400001,
,,,0.022799999,5.2000003,
,,,0.02288,3.2,
,,,0.02296,2.4,
,,,0.02304,2.4,
,,,0.02312,1.6,
,,,0.0232,1.6,
,,,0.02328,-8.0,
,,,0.023359999,-5.6,
,,,0.02344,-4.8,
,,,0.02352,-4.0,
,,,0.023599999,-3.2,
,,,0.02368,-3.2,
,,,0.02376,-3.2,
,,,0.023839999,-2.4,
,,,0.02392,4.4,
,,,0.024,2.4,
,,,0.024079999,1.6,
,,,0.02416,0.8,
,,,0.02424,0.8,
,,,0.024319999,0.0,
,,,0.0244,0.0,
,,,0.02448,-4.8,
,,,0.024559999,-3.2,
,,,0.02464,-2.4,
,,,0.02472,-2.4,
,,,0.024799999,-1.6,
,,,0.02488,-1.6,
,,,0.02496,-1.6,
,,,0.025039999,2.4,
,,,0.02512,1.6,
,,,0.0252,0.8,
,,,0.025279999,0.8,
,,,0.02536,0.0,
,,,0.02544,0.0,
,,,0.025519999,0.0,
,,,0.0256,0.0,
,,,0.02568,-3.2,
,,,0.025759999,-2.4,
,,,0.02584,-1.6,
,,,0.02592,-1.6,
,,,0.025999999,-1.6,
,,,0.02608,-1.6,
,,,0.02616,-1.6,
,,,0.026239999,1.6,
,,,0.02632,0.8,
,,,0.0264,0.0,
,,,0.026479999,0.0,
,,,0.02656,0.0,
,,,0.02664,0.0,
,,,0.026719999,0.0,
,,,0.0268,-3.2,
,,,0.02688,-2.4,
,,,0.026959999,-2.4,
,,,0.02704,-1.6,
,,,0.02712,-1.6,
,,,0.027199998,-1.6,
,,,0.02728,-1.6,
,,,0.02736,0.8,
,,,0.027439998,0.8,
,,,0.02752,0.0,
,,,0.0276,0.0,
,,,0.027679998,0.0,
,,,0.027759999,0.0,
,,,0.02784,0.0,
,,,0.027919998,0.0,
,,,0.027999999,-3.2,
,,,0.02808,-2.4,
,,,0.028159998,-2.4,
,,,0.028239999,-2.4,
,,,0.02832,-1.6,
,,,0.0284,-1.6,
,,,0.028479999,-1.6,
,,,0.02856,-1.6,
,,,0.02864,0.8,
,,,0.028719999,0.0,
,,,0.0288,0.0,
,,,0.02888,0.0,
,,,0.028959999,0.0,
,,,0.02904,0.0,
,,,0.02912,0.0,
,,,0.029199999,-3.2,
,,,0.02928,-2.4,
,,,0.02936,-2.4,
,,,0.029439999,-1.6,
,,,0.02952,-2.4,
,,,0.0296,-1.6,
,,,0.029679999,-1.6,
,,,0.02976,0.8,
,,,0.02984,0.8,
,,,0.029919999,0.0,
,,,0.03,0.0,
,,,0.03008,0.0,
,,,0.030159999,0.0,
,,,0.03024,-0.8,
,,,0.03032,-14.0,
,,,0.030399999,-9.6,
,,,0.03048,-7.2000003,
,,,0.03056,-6.4,
,,,0.030639999,-5.6,
,,,0.03072,-5.6,
,,,0.0308,-5.6,
,,,0.030879999,16.4,
,,,0.03096,9.2,
,,,0.03104,6.8,
,,,0.031119999,6.0,
,,,0.0312,5.2000003,
,,,0.03128,4.4,
,,,0.03136,4.4,
,,,0.03144,-13.2,
,,,0.031519998,-8.0,
,,,0.0316,-6.4,
,,,0.03168,-5.6,
,,,0.03176,-4.8,
,,,0.03184,-4.8,
,,,0.03192,-4.0,
,,,0.031999998,8.400001,
,,,0.03208,6.0,
,,,0.03216,3.2,
,,,0.03224,2.4,
,,,0.03232,2.4,
,,,0.0324,1.6,
,,,0.032479998,1.6,
,,,0.03256,-8.0,
,,,0.03264,-6.4,
,,,0.03272,-4.8,
,,,0.0328,-4.0,
,,,0.03288,-3.2,
,,,0.032959998,-3.2,
,,,0.03304,-3.2,
,,,0.03312,-3.2,
,,,0.0332,4.4,
,,,0.03328,1.6,
,,,0.03336,0.8,
,,,0.033439998,0.8,
,,,0.03352,0.8,
,,,0.0336,0.0,
,,,0.03368,0.0,
,,,0.03376,-4.8,
,,,0.03384,-4.0,
,,,0.033919998,-3.2,
,,,0.033999998,-3.2,
,,,0.03408,-2.4,
,,,0.03416,-2.4,
,,,0.03424,-2.4,
,,,0.03432,1.6,
,,,0.034399997,0.8,
,,,0.034479998,0.0,
,,,0.03456,0.0,
,,,0.03464,0.0,
,,,0.03472,0.0,
,,,0.0348,-0.8,
,,,0.034879997,-3.2,
,,,0.034959998,-3.2,
,,,0.03504,-2.4,
,,,0.03512,-2.4,
,,,0.0352,-2.4,
,,,0.03528,-2.4,
,,,0.035359997,-2.4,
,,,0.035439998,-2.4,
,,,0.03552,0.8,
,,,0.0356,0.0,
,,,0.03568,0.0,
,,,0.03576,0.0,
,,,0.035839997,-0.8,
,,,0.035919998,-0.8,
,,,0.036,-0.8,
,,,0.03608,-2.4,
,,,0.03616,-3.2,
,,,0.03624,-2.4,
,,,0.03632,-2.4,
,,,0.036399998,-2.4,
,,,0.03648,-2.4,
,,,0.03656,-2.4,
,,,0.03664,-2.4,
,,,0.03672,0.8,
,,,0.0368,0.0,
,,,0.036879998,0.0,
,,,0.03696,-0.8,
,,,0.03704,-0.8,
,,,0.03712,-0.8,
,,,0.0372,-0.8,
,,,0.03728,-3.2,
,,,0.037359998,-3.2,
,,,0.03744,-2.4,
,,,0.03752,-2.4,
,,,0.0376,-2.4,
,,,0.03768,-2.4,
,,,0.03776,-2.4,
,,,0.037839998,-1.6,
,,,0.03792,0.8,
,,,0.038,0.0,
,,,0.03808,0.0,
,,,0.03816,0.0,
,,,0.03824,-0.8,
,,,0.038319997,0.0,
,,,0.038399998,-0.8,
,,,0.03848,-3.2,
,,,0.03856,-2.4,
,,,0.03864,-2.4,
,,,0.03872,-2.4,
,,,0.038799997,-2.4,
,,,0.038879998,-2.4,
,,,0.03896,-2.4,
,,,0.03904,0.8,
,,,0.03912,0.8,
,,,0.0392,0.0,
,,,0.039279997,0.0,
,,,0.039359998,0.0,
,,,0.03944,0.0,
,,,0.03952,-0.8,
,,,0.0396,-9.6,
,,,0.03968,-8.8,
,,,0.039759997,-6.4,
,,,0.039839998,-5.6,
,,,0.03992,-4.8,
,,,0.04,-4.8,
,,,0.04008,-4.8,
,,,0.04016,17.2,
,,,0.040239997,10.0,
,,,0.040319998,7.6,
,,,0.0404,6.8,
,,,0.04048,6.0,
,,,0.04056,5.2000003,
,,,0.04064,4.4,
,,,0.040719997,-14.0,
,,,0.040799998,-8.0,
,,,0.04088,-6.4,
,,,0.04096,-5.6,
,,,0.04104,-4.8,
,,,0.04112,-4.8,
,,,0.0412,-4.0,
,,,0.041279998,9.2,
,,,0.04136,6.0,
,,,0.04144,4.4,
,,,0.04152,3.2,
,,,0.0416,2.4,
,,,0.04168,1.6,
,,,0.041759998,1.6,
,,,0.04184,-8.8,
,,,0.04192,-6.4,
,,,0.042,-4.8,
,,,0.04208,-4.0,
,,,0.04216,-4.0,
,,,0.042239998,-3.2,
,,,0.04232,-3.2,
,,,0.0424,-2.4,
,,,0.04248,4.4,
,,,0.04256,2.4,
,,,0.04264,1.6,
,,,0.042719997,0.8,
,,,0.042799998,0.8,
,,,0.04288,0.8,
,,,0.04296,0.0,
,,,0.04304,-4.8,
,,,0.04312,-4.8,
,,,0.043199997,-3.2,
,,,0.043279998,-3.2,
,,,0.04336,-2.4,
,,,0.04344,-2.4,
,,,0.04352,-2.4,
,,,0.0436,1.6,
,,,0.043679997,1.6,
,,,0.043759998,0.8,
,,,0.04384,0.0,
,,,0.04392,0.0,
,,,0.044,0.0,
,,,0.04408,0.0,
,,,0.044159997,0.0,
,,,0.044239998,-3.2,
,,,0.04432,-2.4,
,,,0.0444,-2.4,
,,,0.04448,-2.4,
,,,0.04456,-1.6,
,,,0.044639997,-1.6,
,,,0.044719998,-1.6,
,,,0.0448,0.8,
,,,0.04488,0.8,
,,,0.04496,0.0,
,,,0.04504,0.0,
,,,0.045119997,0.0,
,,,0.045199998,0.0,
,,,0.04528,0.0,
,,,0.04536,0.0,
,,,0.04544,-3.2,
,,,0.04552,-2.4,
,,,0.045599997,-1.6,
,,,0.045679998,-1.6,
,,,0.04576,-0.8,
,,,0.04584,-0.8,
,,,0.04592,-0.8,
,,,0.046,0.8,
,,,0.04608,0.0,
,,,0.046159998,0.0,
,,,0.04624,0.0,
,,,0.04632,0.0,
,,,0.0464,0.0,
,,,0.04648,-0.8,
,,,0.04656,-3.2,
,,,0.046639998,-2.4,
,,,0.046719998,-2.4,
,,,0.0468,-2.4,
,,,0.04688,-1.6,
,,,0.04696,-1.6,
,,,0.04704,-1.6,
,,,0.047119997,-1.6,
,,,0.047199998,0.8,
,,,0.04728,0.8,
,,,0.04736,0.0,
,,,0.04744,0.0,
,,,0.04752,0.0,
,,,0.047599997,0.0,
,,,0.047679998,-0.8,
,,,0.04776,-3.2,
,,,0.04784,-2.4,
,,,0.04792,-1.6,
,,,0.048,-2.4,
,,,0.048079997,-1.6,
,,,0.048159998,-1.6,
,,,0.04824,-1.6,
,,,0.04832,0.8,
,,,0.0484,0.8,
,,,0.04848,0.0,
,,,0.048559997,0.0,
,,,0.048639998,0.0,
,,,0.04872,0.0,
,,,0.0488,-0.8,
,,,0.04888,-3.2,
,,,0.04896,-9.6,
,,,0.049039997,-7.2000003,
,,,0.049119998,-5.6,
,,,0.0492,-4.8,
,,,0.04928,-4.8,
,,,0.04936,-4.0,
,,,0.04944,17.2,
,,,0.049519997,10.0,
,,,0.049599998,7.6,
,,,0.04968,6.0,
,,,0.04976,5.2000003,
,,,0.04984,5.2000003,
,,,0.04992,4.4,
,,,0.049999997,-15.6,
,,,0.050079998,-9.6,
,,,0.05016,-7.2000003,
,,,0.05024,-5.6,
,,,0.05032,-4.8,
,,,0.0504,-4.8,
,,,0.050479997,-4.0,
,,,0.050559998,9.2,
,,,0.05064,6.8,
,,,0.05072,4.4,
,,,0.0508,3.2,
,,,0.05088,2.4,
,,,0.050959997,2.4,
,,,0.051039997,1.6,
,,,0.051119998,1.6,
,,,0.0512,-8.0,
,,,0.05128,-5.6,
,,,0.05136,-4.0,
,,,0.05144,-4.0,
,,,0.051519997,-3.2,
,,,0.051599998,-3.2,
,,,0.05168,-3.2,
,,,0.05176,4.4,
,,,0.05184,2.4,
,,,0.05192,1.6,
,,,0.051999997,0.8,
,,,0.052079998,0.8,
,,,0.05216,0.8,
,,,0.05224,0.8,
,,,0.05232,-4.8,
,,,0.0524,-4.8,
,,,0.052479997,-3.2,
,,,0.052559998,-3.2,
,,,0.05264,-2.4,
,,,0.05272,-2.4,
,,,0.0528,-2.4,
,,,0.05288,-1.6,
,,,0.052959997,1.6,
,,,0.053039998,0.8,
,,,0.05312,0.0,
,,,0.0532,0.0,
,,,0.05328,0.0,
,,,0.05336,0.0,
,,,0.053439997,0.0,
,,,0.053519998,-3.2,
,,,0.0536,-2.4,
,,,0.05368,-2.4,
,,,0.05376,-2.4,
,,,0.05384,-2.4,
,,,0.053919997,-2.4,
,,,0.053999998,-2.4,
,,,0.05408,0.8,
,,,0.05416,0.8,
,,,0.05424,0.0,
,,,0.05432,0.0,
,,,0.054399997,0.0,
,,,0.054479998,-0.8,
,,,0.05456,-0.8,
,,,0.05464,-0.8,
,,,0.05472,-3.2,
,,,0.0548,-2.4,
,,,0.054879997,-2.4,
,,,0.054959998,-2.4,
,,,0.05504,-2.4,
,,,0.05512,-2.4,
,,,0.0552,-2.4,
,,,0.05528,0.8,
,,,0.055359997,0.0,
,,,0.055439997,0.0,
,,,0.055519998,0.0,
,,,0.0556,0.0,
,,,0.05568,0.0,
,,,0.05576,-0.8,
,,,0.055839997,-3.2,
,,,0.055919997,-3.2,
,,,0.055999998,-2.4,
,,,0.05608,-2.4,
,,,0.05616,-2.4,
,,,0.05624,-2.4,
,,,0.056319997,-2.4,
,,,0.056399997,-2.4,
,,,0.056479998,1.6,
,,,0.05656,0.0,
,,,0.05664,0.0,
,,,0.05672,0.0,
,,,0.0568,0.0,
,,,0.056879997,-0.8,
,,,0.056959998,-0.8,
,,,0.05704,-3.2,
,,,0.05712,-3.2,
,,,0.0572,-2.4,
,,,0.05728,-2.4,
,,,0.057359997,-2.4,
,,,0.057439998,-2.4,
,,,0.05752,-2.4,
,,,0.0576,0.8,
,,,0.05768,0.8,
,,,0.05776,0.0,
,,,0.057839997,0.0,
,,,0.057919998,0.0,
,,,0.058,-0.8,
,,,0.05808,-0.8,
,,,0.05816,-0.8,
,,,0.05824,-10.8,
,,,0.058319997,-5.6,
,,,0.058399998,-4.8,
,,,0.05848,-4.0,
,,,0.05856,-4.0,
,,,0.05864,-3.2,
,,,0.05872,18.4,
,,,0.058799997,9.2,
,,,0.058879998,6.8,
,,,0.05896,5.2000003,
,,,0.05904,4.4,
,,,0.05912,4.4,
,,,0.0592,3.2,
,,,0.059279997,-18.0,
,,,0.059359998,-12.400001,
,,,0.059439998,-8.8,
,,,0.05952,-7.2000003,
,,,0.0596,-6.4,
,,,0.05968,-5.6,
,,,0.059759997,-5.6,
,,,0.059839997,10.8,
,,,0.059919998,8.400001,
,,,0.06,4.4,
,,,0.06008,3.2,
,,,0.06016,2.4,
,,,0.060239997,2.4,
,,,0.060319997,1.6,
,,,0.060399998,1.6,
,,,0.06048,-8.8,
,,,0.06056,-6.4,
,,,0.06064,-4.8,
,,,0.060719997,-4.0,
,,,0.060799997,-4.0,
,,,0.060879998,-3.2,
,,,0.06096,-3.2,
,,,0.06104,5.2000003,
,,,0.06112,3.2,
,,,0.061199997,1.6,
,,,0.061279997,0.8,
,,,0.061359998,0.8,
,,,0.06144,0.8,
,,,0.06152,0.8,
,,,0.0616,-5.6,
,,,0.06168,-4.8,
,,,0.061759997,-3.2,
,,,0.061839998,-3.2,
,,,0.06192,-2.4,
,,,0.062,-2.4,
,,,0.06208,-2.4,
,,,0.06216,-2.4,
,,,0.062239997,2.4,
,,,0.062319998,0.8,
,,,0.0624,0.8,
,,,0.06248,0.0,
,,,0.06256,0.0,
,,,0.06264,0.0,
,,,0.06272,0.0,
,,,0.0628,-3.2,
,,,0.06288,-3.2,
,,,0.06296,-2.4,
,,,0.063039996,-2.4,
,,,0.06312,-2.4,
,,,0.0632,-1.6,
,,,0.06328,-1.6,
,,,0.06336,-1.6,
,,,0.063439995,0.8,
,,,0.06352,0.8,
,,,0.063599996,0.0,
,,,0.06368,0.0,
,,,0.06376,0.0,
,,,0.06384,0.0,
,,,0.06392,0.0,
,,,0.063999996,-3.2,
,,,0.06408,-2.4,
,,,0.06416,-2.4,
,,,0.06424,-1.6,
,,,0.06432,-1.6,
,,,0.064399995,-1.6,
,,,0.06448,-1.6,
,,,0.064559996,0.8,
,,,0.06464,0.8,
,,,0.06472,0.0,
,,,0.0648,0.0,
,,,0.06488,0.0,
,,,0.064959995,0.0,
,,,0.06504,0.0,
,,,0.06512,-3.2,
,,,0.0652,-3.2,
,,,0.06528,-2.4,
,,,0.065359995,-2.4,
,,,0.06544,-1.6,
,,,0.065519996,-1.6,
,,,0.0656,-1.6,
,,,0.06568,-0.8,
,,,0.06576,0.8,
,,,0.06584,0.8,
,,,0.065919995,0.0,
,,,0.066,0.0,
,,,0.06608,0.0,
,,,0.06616,0.0,
,,,0.06624,0.0,
,,,0.066319995,-3.2,
,,,0.0664,-3.2,
,,,0.066479996,-2.4,
,,,0.06656,-2.4,
,,,0.06664,-1.6,
,,,0.06672,-1.6,
,,,0.0668,-1.6,
,,,0.066879995,0.8,
,,,0.06696,0.8,
,,,0.06704,0.0,
,,,0.06712,0.0,
,,,0.0672,0.0,
,,,0.06728,0.0,
,,,0.06736,0.0,
,,,0.067439996,0.0,
,,,0.06752,-3.2,
,,,0.0676,-2.4,
,,,0.06768,-1.6,
,,,0.06776,-1.6,
,,,0.067839995,-1.6,
,,,0.06792,-1.6,
,,,0.067999996,17.2,
,,,0.06808,10.8,
,,,0.06816,7.6,
,,,0.06824,6.0,
,,,0.06832,5.2000003,
,,,0.068399996,5.2000003,
,,,0.06848,4.4,
,,,0.06856,-18.800001,
,,,0.06864,-9.6,
,,,0.06872,-7.2000003,
,,,0.068799995,-5.6,
,,,0.06888,-4.8,
,,,0.068959996,-4.8,
,,,0.06904,-4.0,
,,,0.06912,12.400001,
,,,0.0692,10.0,
,,,0.06928,6.0,
,,,0.069359995,5.2000003,
,,,0.06944,4.4,
,,,0.06952,3.2,
,,,0.0696,2.4,
,,,0.06968,2.4,
,,,0.069759995,-9.6,
,,,0.06984,-6.4,
,,,0.069919996,-4.8,
,,,0.07,-4.0,
,,,0.07008,-4.0,
,,,0.07016,-3.2,
,,,0.07024,-3.2,
,,,0.070319995,3.2,
,,,0.0704,5.2000003,
,,,0.07048,3.2,
,,,0.07056,1.6,
,,,0.07064,1.6,
,,,0.070719995,0.8,
,,,0.0708,0.8,
,,,0.070879996,0.8,
,,,0.07096,-5.6,
,,,0.07104,-4.0,
,,,0.07112,-3.2,
,,,0.0712,-3.2,
,,,0.071279995,-2.4,
,,,0.07136,-2.4,
,,,0.07144,-2.4,
,,,0.07152,2.4,
,,,0.0716,1.6,
,,,0.071679994,0.8,
,,,0.07176,0.8,
,,,0.071839996,0.0,
,,,0.07192,0.0,
,,,0.072,0.0,
,,,0.07208,-4.0,
,,,0.07216,-3.2,
,,,0.072239995,-2.4,
,,,0.07232,-2.4,
,,,0.072399996,-2.4,
,,,0.07248,-1.6,
,,,0.07256,-1.6,
,,,0.07264,-1.6,
,,,0.07272,0.8,
,,,0.072799996,0.0,
,,,0.07288,0.0,
,,,0.07296,0.0,
,,,0.07304,0.0,
,,,0.07312,0.0,
,,,0.073199995,-0.8,
,,,0.07328,-3.2,
,,,0.073359996,-2.4,
,,,0.07344,-2.4,
,,,0.07352,-2.4,
,,,0.0736,-2.4,
,,,0.07368,-1.6,
,,,0.073759995,-1.6,
,,,0.07384,0.8,
,,,0.07392,0.8,
,,,0.074,0.0,
,,,0.07408,0.0,
,,,0.074159995,0.0,
,,,0.07424,-0.8,
,,,0.074319996,-0.8,
,,,0.0744,-3.2,
,,,0.07448,-3.2,
,,,0.07456,-3.2,
,,,0.07464,-2.4,
,,,0.074719995,-2.4,
,,,0.0748,-3.2,
,,,0.07488,-2.4,
,,,0.07496,-2.4,
,,,0.07504,0.8,
,,,0.075119995,0.0,
,,,0.0752,0.0,
,,,0.075279996,0.0,
,,,0.07536,-0.8,
,,,0.07544,-0.8,
,,,0.07552,-0.8,
,,,0.0756,-3.2,
,,,0.075679995,-3.2,
,,,0.07576,-3.2,
,,,0.07584,-3.2,
,,,0.07592,-2.4,
,,,0.076,-2.4,
,,,0.076079994,-2.4,
,,,0.07616,-2.4,
,,,0.076239996,0.8,
,,,0.07632,0.0,
,,,0.0764,0.0,
,,,0.07648,-0.8,
,,,0.07656,-0.8,
,,,0.076639995,-0.8,
,,,0.07672,-0.8,
,,,0.076799996,-3.2,
,,,0.07688,-3.2,
,,,0.07696,-3.2,
,,,0.07704,-2.4,
,,,0.07712,-2.4,
,,,0.077199996,-2.4,
,,,0.07728,12.400001,
,,,0.07736,14.8,
,,,0.07744,9.2,
,,,0.07752,6.8,
,,,0.077599995,6.0,
,,,0.07768,5.2000003,
,,,0.077759996,5.2000003,
,,,0.07784,4.4,
,,,0.07792,-14.8,
,,,0.078,-8.0,
,,,0.07808,-6.4,
,,,0.078159995,-5.6,
,,,0.07824,-4.8,
,,,0.07832,-4.8,
,,,0.0784,-4.0,
,,,0.07848,9.2,
,,,0.078559995,6.0,
,,,0.07864,4.4,
,,,0.078719996,3.2,
,,,0.0788,2.4,
,,,0.07888,2.4,
,,,0.07896,1.6,
,,,0.07904,-8.8,
,,,0.079119995,-6.4,
,,,0.0792,-4.8,
,,,0.07928,-4.0,
,,,0.07936,-3.2,
,,,0.07944,-3.2,
,,,0.079519995,-3.2,
,,,0.0796,-3.2,
,,,0.079679996,4.4,
,,,0.07976,2.4,
,,,0.07984,1.6,
,,,0.07992,0.8,
,,,0.08,0.8,
,,,0.080079995,0.8,
,,,0.08016,0.8,
,,,0.08024,-4.8,
,,,0.08032,-3.2,
,,,0.0804,-3.2,
,,,0.080479994,-2.4,
,,,0.08056,-2.4,
,,,0.080639996,-2.4,
,,,0.08072,-2.4,
,,,0.0808,2.4,
,,,0.08088,0.8,
,,,0.08096,0.8,
,,,0.081039995,0.0,
,,,0.08112,0.0,
,,,0.081199996,0.0,
,,,0.08128,0.0,
,,,0.08136,-3.2,
,,,0.081439994,-3.2,
,,,0.08152,-2.4,
,,,0.081599995,-2.4,
,,,0.08168,-1.6,
,,,0.08176,-1.6,
,,,0.08184,-1.6,
,,,0.08192,-1.6,
,,,0.081999995,0.8,
,,,0.08208,0.0,
,,,0.082159996,0.0,
,,,0.08224,0.0,
,,,0.08232,0.0,
,,,0.0824,0.0,
,,,0.08248,-0.8,
,,,0.082559995,-3.2,
,,,0.08264,-2.4,
,,,0.08272,-2.4,
,,,0.0828,-1.6,
,,,0.08288,-1.6,
,,,0.082959995,-1.6,
,,,0.08304,-1.6,
,,,0.083119996,0.8,
,,,0.0832,0.8,
,,,0.08328,0.0,
,,,0.08336,0.0,
,,,0.08344,0.0,
,,,0.083519995,0.0,
,,,0.0836,0.0,
,,,0.08368,-3.2,
,,,0.08376,-3.2,
,,,0.08384,-2.4,
,,,0.083919995,-2.4,
,,,0.084,-1.6,
,,,0.084079996,-1.6,
,,,0.08416,-1.6,
,,,0.08424,-1.6,
,,,0.08432,0.8,
,,,0.0844,0.8,
,,,0.084479995,0.0,
,,,0.08456,0.0,
,,,0.08464,0.0,
,,,0.08472,0.0,
,,,0.0848,0.0,
,,,0.084879994,0.0,
,,,0.08496,-3.2,
,,,0.085039996,-2.4,
,,,0.08512,-1.6,
,,,0.0852,-1.6,
,,,0.08528,-1.6,
,,,0.08536,-1.6,
,,,0.085439995,-1.6,
,,,0.08552,0.8,
,,,0.085599996,0.8,
,,,0.08568,0.0,
,,,0.08576,0.0,
,,,0.085839994,0.0,
,,,0.08592,0.0,
,,,0.085999995,0.0,
,,,0.08608,-3.2,
,,,0.08616,-3.2,
,,,0.08624,-2.4,
,,,0.08632,-2.4,
,,,0.086399995,-1.6,
,,,0.08648,-1.6,
,,,0.086559996,-1.6,
,,,0.08664,17.2,
,,,0.08672,9.2,
,,,0.086799994,7.6,
,,,0.08688,6.8,
,,,0.086959995,6.0,
,,,0.08704,5.2000003,
,,,0.08712,5.2000003,
,,,0.0872,-16.4,
,,,0.08728,-8.8,
,,,0.087359995,-7.2000003,
,,,0.08744,-6.4,
,,,0.087519996,-5.6,
,,,0.0876,-4.8,
,,,0.08768,-4.8,
,,,0.08776,10.8,
,,,0.08784,5.2000003,
,,,0.087919995,3.2,
,,,0.088,2.4,
,,,0.08808,2.4,
,,,0.08816,1.6,
,,,0.08824,1.6,
,,,0.088319995,-10.8,
