data/2112220047.csv

ProID,Info,,time,Value,
GenTime,2021-12-22 20:44:49,,0.0,0.0,
Record Length,87500 Points,,8.0E-5,-0.8,
Sample Interval,8.0E-5 s,,1.6E-4,-0.8,
Trigger Time,0s,,2.4E-4,-0.8,
Source,CH2,,3.2E-4,-3.2,
Vertical Units,(V)/grid,,4.0E-4,-2.4,
Vertical Scale,20.0,,4.8E-4,-2.4,
Vertical Offset,-44,,5.5999996E-4,-1.6,
Horizontal Units,s/grid,,6.4E-4,-1.6,
Horizontal Scale,0.5,,7.2E-4,-1.6,
Probe Atten,10.0,,8.0E-4,-1.6,
,,,8.7999995E-4,0.8,
,,,9.6E-4,0.0,
,,,0.00104,0.0,
,,,0.0011199999,0.0,
,,,0.0011999999,0.0,
,,,0.00128,0.0,
,,,0.00136,-0.8,
,,,0.00144,-18.0,
,,,0.0015199999,-11.6,
,,,0.0016,-9.6,
,,,0.00168,-8.8,
,,,0.0017599999,-8.0,
,,,0.0018399999,-7.2000003,
,,,0.00192,14.8,
,,,0.0019999999,11.6,
,,,0.00208,7.6,
,,,0.00216,6.0,
,,,0.0022399998,5.2000003,
,,,0.00232,4.4,
,,,0.0023999999,4.4,
,,,0.00248,3.2,
,,,0.00256,-17.2,
,,,0.0026399998,-10.8,
,,,0.00272,-8.8,
,,,0.0028,-8.0,
,,,0.00288,-7.2000003,
,,,0.00296,-7.2000003,
,,,0.0030399999,-6.4,
,,,0.00312,11.6,
,,,0.0032,6.0,
,,,0.0032799998,4.4,
,,,0.00336,2.4,
,,,0.00344,2.4,
,,,0.0035199998,1.6,
,,,0.0036,1.6,
,,,0.0036799998,-12.400001,
,,,0.00376,-9.6,
,,,0.00384,-7.2000003,
,,,0.00392,-6.4,
,,,0.0039999997,-5.6,
,,,0.00408,-5.6,
,,,0.00416,-4.8,
,,,0.0042399997,-4.8,
,,,0.00432,5.2000003,
,,,0.0044,2.4,
,,,0.0044799997,2.4,
,,,0.00456,1.6,
,,,0.00464,0.8,
,,,0.00472,0.8,
,,,0.0047999998,0.0,
,,,0.00488,-8.0,
,,,0.00496,-6.4,
,,,0.0050399997,-4.8,
,,,0.00512,-4.8,
,,,0.0052,-4.8,
,,,0.0052799997,-4.0,
,,,0.00536,-4.0,
,,,0.00544,5.2000003,
,,,0.0055199997,4.4,
,,,0.0056,2.4,
,,,0.00568,1.6,
,,,0.00576,0.8,
,,,0.0058399998,0.8,
,,,0.00592,0.8,
,,,0.006,0.0,
,,,0.0060799997,-5.6,
,,,0.00616,-4.0,
,,,0.00624,-3.2,
,,,0.0063199997,-3.2,
,,,0.0064,-3.2,
,,,0.00648,-2.4,
,,,0.0065599997,-2.4,
,,,0.00664,3.2,
,,,0.00672,1.6,
,,,0.0067999996,0.8,
,,,0.00688,0.8,
,,,0.00696,0.0,
,,,0.0070399996,0.0,
,,,0.0071199997,0.0,
,,,0.0072,-4.8,
,,,0.00728,-3.2,
,,,0.0073599997,-3.2,
,,,0.00744,-2.4,
,,,0.00752,-2.4,
,,,0.0075999997,-2.4,
,,,0.00768,-2.4,
,,,0.00776,-2.4,
,,,0.00784,1.6,
,,,0.00792,0.8,
,,,0.007999999,0.0,
,,,0.00808,0.0,
,,,0.00816,0.0,
,,,0.008239999,0.0,
,,,0.00832,0.0,
,,,0.0084,-3.2,
,,,0.008479999,-3.2,
,,,0.00856,-2.4,
,,,0.00864,-2.4,
,,,0.008719999,-2.4,
,,,0.0088,-2.4,
,,,0.00888,-2.4,
,,,0.008959999,-1.6,
,,,0.00904,0.8,
,,,0.00912,0.0,
,,,0.0092,0.0,
,,,0.00928,0.0,
,,,0.00936,-0.8,
,,,0.00944,-0.8,
,,,0.00952,-0.8,
,,,0.0095999995,-3.2,
,,,0.00968,-2.4,
,,,0.00976,-2.4,
,,,0.0098399995,-2.4,
,,,0.00992,-2.4,
,,,0.01,-2.4,
,,,0.010079999,-1.6,
,,,0.01016,0.8,
,,,0.01024,0.0,
,,,0.010319999,0.0,
,,,0.0104,0.0,
,,,0.01048,-0.8,
,,,0.010559999,-1.6,
,,,0.01064,-1.6,
,,,0.01072,-18.0,
,,,0.010799999,-12.400001,
,,,0.01088,-10.8,
,,,0.01096,-8.8,
,,,0.011039999,-8.8,
,,,0.01112,-8.0,
,,,0.0112,-7.2000003,
,,,0.011279999,12.400001,
,,,0.01136,7.6,
,,,0.01144,6.0,
,,,0.01152,5.2000003,
,,,0.0116,4.4,
,,,0.0116799995,4.4,
,,,0.01176,3.2,
,,,0.01184,-16.4,
,,,0.0119199995,-11.6,
,,,0.012,-8.8,
,,,0.01208,-8.0,
,,,0.012159999,-8.0,
,,,0.01224,-8.0,
,,,0.01232,-8.0,
,,,0.012399999,11.6,
,,,0.01248,7.6,
,,,0.01256,5.2000003,
,,,0.012639999,3.2,
,,,0.01272,3.2,
,,,0.0128,2.4,
,,,0.012879999,2.4,
,,,0.01296,1.6,
,,,0.01304,-8.8,
,,,0.013119999,-6.4,
,,,0.0132,-5.6,
,,,0.01328,-4.8,
,,,0.013359999,-4.8,
,,,0.01344,-4.8,
,,,0.01352,-4.0,
,,,0.013599999,6.8,
,,,0.01368,4.4,
,,,0.01376,2.4,
,,,0.013839999,1.6,
,,,0.01392,1.6,
,,,0.0139999995,0.8,
,,,0.014079999,0.8,
,,,0.01416,-7.2000003,
,,,0.014239999,-4.8,
,,,0.01432,-4.0,
,,,0.0144,-4.0,
,,,0.014479999,-3.2,
,,,0.01456,-3.2,
,,,0.01464,-3.2,
,,,0.014719999,4.4,
,,,0.0148,3.2,
,,,0.01488,1.6,
,,,0.014959999,0.8,
,,,0.01504,0.8,
,,,0.01512,0.8,
,,,0.015199999,0.8,
,,,0.01528,0.0,
,,,0.01536,-5.6,
,,,0.015439999,-3.2,
,,,0.01552,-3.2,
,,,0.0156,-2.4,
,,,0.01568,-2.4,
,,,0.015759999,-2.4,
,,,0.01584,-2.4,
,,,0.01592,2.4,
,,,0.015999999,1.6,
,,,0.01608,0.8,
,,,0.01616,0.8,
,,,0.016239999,0.0,
,,,0.01632,0.0,
,,,0.0164,0.0,
,,,0.016479999,-4.0,
,,,0.01656,-3.2,
,,,0.01664,-2.4,
,,,0.016719999,-2.4,
,,,0.0168,-2.4,
,,,0.01688,-2.4,
,,,0.016959999,-2.4,
,,,0.01704,-1.6,
,,,0.01712,0.8,
,,,0.017199999,0.8,
,,,0.01728,0.0,
,,,0.01736,0.0,
,,,0.017439999,0.0,
,,,0.01752,0.0,
,,,0.0176,0.0,
,,,0.017679999,-3.2,
,,,0.01776,-3.2,
,,,0.01784,-2.4,
,,,0.017919999,-2.4,
,,,0.018,-2.4,
,,,0.01808,-2.4,
,,,0.01816,-1.6,
,,,0.01824,-1.6,
,,,0.01832,0.8,
,,,0.0184,0.0,
,,,0.01848,0.0,
,,,0.01856,0.0,
,,,0.01864,-0.8,
,,,0.01872,-0.8,
,,,0.0188,-0.8,
,,,0.01888,-3.2,
,,,0.01896,-3.2,
,,,0.01904,-2.4,
,,,0.01912,-2.4,
,,,0.019199999,-2.4,
,,,0.01928,-2.4,
,,,0.01936,-1.6,
,,,0.019439999,0.8,
,,,0.01952,0.8,
,,,0.0196,0.0,
,,,0.019679999,0.0,
,,,0.01976,0.0,
,,,0.01984,0.0,
,,,0.019919999,-0.8,
,,,0.02,-14.8,
,,,0.02008,-14.0,
,,,0.020159999,-11.6,
,,,0.02024,-9.6,
,,,0.02032,-8.8,
,,,0.020399999,-8.0,
,,,0.02048,-7.2000003,
,,,0.02056,18.4,
,,,0.020639999,10.8,
,,,0.02072,8.400001,
,,,0.0208,7.6,
,,,0.020879999,6.8,
,,,0.02096,6.0,
,,,0.02104,5.2000003,
,,,0.021119999,-17.2,
,,,0.0212,-9.6,
,,,0.02128,-7.2000003,
,,,0.021359999,-6.4,
,,,0.02144,-5.6,
,,,0.02152,-4.8,
,,,0.021599999,-4.0,
,,,0.02168,12.400001,
,,,0.02176,9.2,
,,,0.021839999,6.8,
,,,0.02192,5.2000003,
,,,0.022,4.4,
,,,0.022079999,4.4,
,,,0.02216,3.2,
,,,0.02224,3.2,
,,,0.022319999,-9.6,
,,,0.0224,-6.4,
,,,0.02248,-4.8,
,,,0.022559999,-4.0,
,,,0.02264,-3.2,
,,,0.02272,-3.2,
,,,0.022799999,-2.4,
,,,0.02288,8.400001,
,,,0.02296,5.2000003,
,,,0.02304,4.4,
,,,0.02312,3.2,
,,,0.0232,2.4,
,,,0.02328,2.4,
,,,0.023359999,2.4,
,,,0.02344,-8.8,
,,,0.02352,-5.6,
,,,0.023599999,-4.0,
,,,0.02368,-4.0,
,,,0.02376,-3.2,
,,,0.023839999,-3.2,
,,,0.02392,-2.4,
,,,0.024,6.0,
,,,0.024079999,5.2000003,
,,,0.02416,3.2,
,,,0.02424,2.4,
,,,0.024319999,1.6,
,,,0.0244,1.6,
,,,0.02448,1.6,
,,,0.024559999,0.8,
,,,0.02464,-6.4,
,,,0.02472,-4.0,
,,,0.024799999,-3.2,
,,,0.02488,-3.2,
,,,0.02496,-2.4,
,,,0.025039999,-2.4,
,,,0.02512,-2.4,
,,,0.0252,3.2,
,,,0.025279999,2.4,
,,,0.02536,1.6,
,,,0.02544,0.8,
,,,0.025519999,0.8,
,,,0.0256,0.8,
,,,0.02568,0.8,
,,,0.025759999,0.0,
,,,0.02584,-4.8,
,,,0.02592,-3.2,
,,,0.025999999,-3.2,
,,,0.02608,-3.2,
,,,0.02616,-2.4,
,,,0.026239999,-2.4,
,,,0.02632,-2.4,
,,,0.0264,1.6,
,,,0.026479999,0.8,
,,,0.02656,0.8,
,,,0.02664,0.0,
,,,0.026719999,0.0,
,,,0.0268,0.0,
,,,0.02688,0.0,
,,,0.026959999,0.0,
,,,0.02704,-3.2,
,,,0.02712,-2.4,
,,,0.027199998,-2.4,
,,,0.02728,-2.4,
,,,0.02736,-1.6,
,,,0.027439998,-1.6,
,,,0.02752,-1.6,
,,,0.0276,0.8,
,,,0.027679998,0.8,
,,,0.027759999,0.0,
,,,0.02784,0.0,
,,,0.027919998,0.0,
,,,0.027999999,0.0,
,,,0.02808,0.0,
,,,0.028159998,-3.2,
,,,0.028239999,-2.4,
,,,0.02832,-2.4,
,,,0.0284,-1.6,
,,,0.028479999,-1.6,
,,,0.02856,-1.6,
,,,0.02864,-1.6,
,,,0.028719999,0.8,
,,,0.0288,0.8,
,,,0.02888,0.0,
,,,0.028959999,0.0,
,,,0.02904,0.0,
,,,0.02912,0.0,
,,,0.029199999,-0.8,
,,,0.02928,-15.6,
,,,0.02936,-13.2,
,,,0.029439999,-9.6,
,,,0.02952,-8.8,
,,,0.0296,-8.0,
,,,0.029679999,-7.2000003,
,,,0.02976,-6.4,
,,,0.02984,18.4,
,,,0.029919999,10.8,
,,,0.03,8.400001,
,,,0.03008,7.6,
,,,0.030159999,6.0,
,,,0.03024,6.0,
,,,0.03032,5.2000003,
,,,0.030399999,-16.4,
,,,0.03048,-9.6,
,,,0.03056,-7.2000003,
,,,0.030639999,-6.4,
,,,0.03072,-6.4,
,,,0.0308,-5.6,
,,,0.030879999,-5.6,
,,,0.03096,10.8,
,,,0.03104,8.400001,
,,,0.031119999,6.0,
,,,0.0312,4.4,
,,,0.03128,3.2,
,,,0.03136,3.2,
,,,0.03144,3.2,
,,,0.031519998,2.4,
,,,0.0316,-8.8,
,,,0.03168,-6.4,
,,,0.03176,-4.8,
,,,0.03184,-4.8,
,,,0.03192,-4.0,
,,,0.031999998,-4.0,
,,,0.03208,-4.0,
,,,0.03216,6.8,
,,,0.03224,4.4,
,,,0.03232,2.4,
,,,0.0324,2.4,
,,,0.032479998,1.6,
,,,0.03256,1.6,
,,,0.03264,1.6,
,,,0.03272,-7.2000003,
,,,0.0328,-6.4,
,,,0.03288,-4.8,
,,,0.032959998,-4.0,
,,,0.03304,-4.0,
,,,0.03312,-3.2,
,,,0.0332,-3.2,
,,,0.03328,-3.2,
,,,0.03336,3.2,
,,,0.033439998,1.6,
,,,0.03352,0.8,
,,,0.0336,0.8,
,,,0.03368,0.0,
,,,0.03376,0.0,
,,,0.03384,0.0,
,,,0.033919998,-4.8,
,,,0.033999998,-4.0,
,,,0.03408,-3.2,
,,,0.03416,-3.2,
,,,0.03424,-2.4,
,,,0.03432,-2.4,
,,,0.034399997,-2.4,
,,,0.034479998,-2.4,
,,,0.03456,0.8,
,,,0.03464,0.0,
,,,0.03472,0.0,
,,,0.0348,0.0,
,,,0.034879997,0.0,
,,,0.034959998,0.0,
,,,0.03504,-0.8,
,,,0.03512,-4.0,
,,,0.0352,-3.2,
,,,0.03528,-2.4,
,,,0.035359997,-2.4,
,,,0.035439998,-2.4,
,,,0.03552,-2.4,
,,,0.0356,-2.4,
,,,0.03568,0.8,
,,,0.03576,0.0,
,,,0.035839997,0.0,
,,,0.035919998,0.0,
,,,0.036,0.0,
,,,0.03608,-0.8,
,,,0.03616,-0.8,
,,,0.03624,-0.8,
,,,0.03632,-3.2,
,,,0.036399998,-2.4,
,,,0.03648,-2.4,
,,,0.03656,-2.4,
,,,0.03664,-2.4,
,,,0.03672,-1.6,
,,,0.0368,-1.6,
,,,0.036879998,0.8,
,,,0.03696,0.8,
,,,0.03704,0.0,
,,,0.03712,0.0,
,,,0.0372,0.0,
,,,0.03728,0.0,
,,,0.037359998,-0.8,
,,,0.03744,-3.2,
,,,0.03752,-2.4,
,,,0.0376,-2.4,
,,,0.03768,-1.6,
,,,0.03776,-1.6,
,,,0.037839998,-1.6,
,,,0.03792,-1.6,
,,,0.038,0.8,
,,,0.03808,0.8,
,,,0.03816,0.0,
,,,0.03824,0.0,
,,,0.038319997,0.0,
,,,0.038399998,0.0,
,,,0.03848,0.0,
,,,0.03856,-10.8,
,,,0.03864,-13.2,
,,,0.03872,-8.8,
,,,0.038799997,-8.0,
,,,0.038879998,-7.2000003,
,,,0.03896,-6.4,
,,,0.03904,-6.4,
,,,0.03912,20.0,
,,,0.0392,12.400001,
,,,0.039279997,9.2,
,,,0.039359998,8.400001,
,,,0.03944,7.6,
,,,0.03952,6.8,
,,,0.0396,6.0,
,,,0.03968,-18.0,
,,,0.039759997,-14.0,
,,,0.039839998,-9.6,
,,,0.03992,-8.0,
,,,0.04,-7.2000003,
,,,0.04008,-6.4,
,,,0.04016,-5.6,
,,,0.040239997,9.2,
,,,0.040319998,10.8,
,,,0.0404,6.0,
,,,0.04048,5.2000003,
,,,0.04056,4.4,
,,,0.04064,3.2,
,,,0.040719997,3.2,
,,,0.040799998,2.4,
,,,0.04088,-11.6,
,,,0.04096,-8.0,
,,,0.04104,-6.4,
,,,0.04112,-5.6,
,,,0.0412,-4.8,
,,,0.041279998,-4.0,
,,,0.04136,-3.2,
,,,0.04144,7.6,
,,,0.04152,5.2000003,
,,,0.0416,3.2,
,,,0.04168,2.4,
,,,0.041759998,1.6,
,,,0.04184,1.6,
,,,0.04192,0.8,
,,,0.042,0.8,
,,,0.04208,-8.0,
,,,0.04216,-5.6,
,,,0.042239998,-4.8,
,,,0.04232,-3.2,
,,,0.0424,-3.2,
,,,0.04248,-2.4,
,,,0.04256,-2.4,
,,,0.04264,5.2000003,
,,,0.042719997,2.4,
,,,0.042799998,1.6,
,,,0.04288,1.6,
,,,0.04296,0.8,
,,,0.04304,0.8,
,,,0.04312,0.8,
,,,0.043199997,-6.4,
,,,0.043279998,-5.6,
,,,0.04336,-4.0,
,,,0.04344,-4.0,
,,,0.04352,-3.2,
,,,0.0436,-2.4,
,,,0.043679997,-2.4,
,,,0.043759998,-2.4,
,,,0.04384,2.4,
,,,0.04392,1.6,
,,,0.044,0.8,
,,,0.04408,0.8,
,,,0.044159997,0.0,
,,,0.044239998,0.0,
,,,0.04432,0.0,
,,,0.0444,-4.8,
,,,0.04448,-4.0,
,,,0.04456,-3.2,
,,,0.044639997,-3.2,
,,,0.044719998,-2.4,
,,,0.0448,-2.4,
,,,0.04488,-2.4,
,,,0.04496,2.4,
,,,0.04504,0.8,
,,,0.045119997,0.0,
,,,0.045199998,0.0,
,,,0.04528,0.0,
,,,0.04536,0.0,
,,,0.04544,0.0,
,,,0.04552,0.0,
,,,0.045599997,-3.2,
,,,0.045679998,-3.2,
,,,0.04576,-2.4,
,,,0.04584,-2.4,
,,,0.04592,-2.4,
,,,0.046,-2.4,
,,,0.04608,-2.4,
,,,0.046159998,1.6,
,,,0.04624,0.8,
,,,0.04632,0.0,
,,,0.0464,0.0,
,,,0.04648,0.0,
,,,0.04656,-0.8,
,,,0.046639998,-0.8,
,,,0.046719998,-3.2,
,,,0.0468,-3.2,
,,,0.04688,-2.4,
,,,0.04696,-2.4,
,,,0.04704,-2.4,
,,,0.047119997,-1.6,
,,,0.047199998,-2.4,
,,,0.04728,-1.6,
,,,0.04736,0.8,
,,,0.04744,0.8,
,,,0.04752,0.0,
,,,0.047599997,0.0,
,,,0.047679998,0.0,
,,,0.04776,0.0,
,,,0.04784,-0.8,
,,,0.04792,-14.8,
,,,0.048,-8.8,
,,,0.048079997,-7.2000003,
,,,0.048159998,-6.4,
,,,0.04824,-5.6,
,,,0.04832,-5.6,
,,,0.0484,20.800001,
,,,0.04848,11.6,
,,,0.048559997,8.400001,
,,,0.048639998,7.6,
,,,0.04872,6.0,
,,,0.0488,6.0,
,,,0.04888,5.2000003,
,,,0.04896,-18.0,
,,,0.049039997,-15.6,
,,,0.049119998,-10.8,
,,,0.0492,-8.8,
,,,0.04928,-7.2000003,
,,,0.04936,-7.2000003,
,,,0.04944,-6.4,
,,,0.049519997,-6.4,
,,,0.049599998,11.6,
,,,0.04968,5.2000003,
,,,0.04976,4.4,
,,,0.04984,3.2,
,,,0.04992,2.4,
,,,0.049999997,2.4,
,,,0.050079998,1.6,
,,,0.05016,-11.6,
,,,0.05024,-8.8,
,,,0.05032,-7.2000003,
,,,0.0504,-6.4,
,,,0.050479997,-5.6,
,,,0.050559998,-5.6,
,,,0.05064,-5.6,
,,,0.05072,-4.8,
,,,0.0508,4.4,
,,,0.05088,2.4,
,,,0.050959997,1.6,
,,,0.051039997,1.6,
,,,0.051119998,0.8,
,,,0.0512,0.8,
,,,0.05128,0.8,
,,,0.05136,-7.2000003,
,,,0.05144,-5.6,
,,,0.051519997,-5.6,
,,,0.051599998,-4.8,
,,,0.05168,-4.8,
,,,0.05176,-4.8,
,,,0.05184,-4.8,
,,,0.05192,4.4,
,,,0.051999997,1.6,
,,,0.052079998,0.8,
,,,0.05216,0.0,
,,,0.05224,0.0,
,,,0.05232,0.0,
,,,0.0524,0.0,
,,,0.052479997,-5.6,
,,,0.052559998,-4.8,
,,,0.05264,-4.0,
,,,0.05272,-4.0,
,,,0.0528,-4.0,
,,,0.05288,-3.2,
,,,0.052959997,-3.2,
,,,0.053039998,-3.2,
,,,0.05312,1.6,
,,,0.0532,0.0,
,,,0.05328,0.0,
,,,0.05336,-0.8,
,,,0.053439997,-0.8,
,,,0.053519998,-0.8,
,,,0.0536,-0.8,
,,,0.05368,-4.0,
,,,0.05376,-3.2,
,,,0.05384,-3.2,
,,,0.053919997,-3.2,
,,,0.053999998,-2.4,
,,,0.05408,-2.4,
,,,0.05416,-3.2,
,,,0.05424,0.8,
,,,0.05432,0.8,
,,,0.054399997,0.0,
,,,0.054479998,0.0,
,,,0.05456,-0.8,
,,,0.05464,-0.8,
,,,0.05472,-0.8,
,,,0.0548,-0.8,
,,,0.054879997,-3.2,
,,,0.054959998,-3.2,
,,,0.05504,-2.4,
,,,0.05512,-2.4,
,,,0.0552,-2.4,
,,,0.05528,-2.4,
,,,0.055359997,-2.4,
,,,0.055439997,0.8,
,,,0.055519998,0.0,
,,,0.0556,0.0,
,,,0.05568,-0.8,
,,,0.05576,-0.8,
,,,0.055839997,-0.8,
,,,0.055919997,-0.8,
,,,0.055999998,-0.8,
,,,0.05608,-3.2,
,,,0.05616,-2.4,
,,,0.05624,-2.4,
,,,0.056319997,-2.4,
,,,0.056399997,-2.4,
,,,0.056479998,-2.4,
,,,0.05656,-2.4,
,,,0.05664,0.8,
,,,0.05672,0.0,
,,,0.0568,0.0,
,,,0.056879997,-0.8,
,,,0.056959998,-0.8,
,,,0.05704,-0.8,
,,,0.05712,-0.8,
,,,0.0572,-10.8,
,,,0.05728,-6.4,
,,,0.057359997,-5.6,
,,,0.057439998,-4.8,
,,,0.05752,-4.8,
,,,0.0576,-4.0,
,,,0.05768,19.2,
,,,0.05776,13.2,
,,,0.057839997,9.2,
,,,0.057919998,7.6,
,,,0.058,6.8,
,,,0.05808,6.0,
,,,0.05816,6.0,
,,,0.05824,4.4,
,,,0.058319997,-18.0,
,,,0.058399998,-10.8,
,,,0.05848,-8.8,
,,,0.05856,-8.0,
,,,0.05864,-7.2000003,
,,,0.05872,-6.4,
,,,0.058799997,-6.4,
,,,0.058879998,12.400001,
,,,0.05896,6.0,
,,,0.05904,4.4,
,,,0.05912,3.2,
,,,0.0592,2.4,
,,,0.059279997,2.4,
,,,0.059359998,2.4,
,,,0.059439998,-12.400001,
,,,0.05952,-8.8,
,,,0.0596,-7.2000003,
,,,0.05968,-6.4,
,,,0.059759997,-5.6,
,,,0.059839997,-5.6,
,,,0.059919998,-4.8,
,,,0.06,-4.8,
,,,0.06008,5.2000003,
,,,0.06016,2.4,
,,,0.060239997,2.4,
,,,0.060319997,1.6,
,,,0.060399998,0.8,
,,,0.06048,0.8,
,,,0.06056,0.8,
,,,0.06064,-8.0,
,,,0.060719997,-6.4,
,,,0.060799997,-4.8,
,,,0.060879998,-4.8,
,,,0.06096,-4.0,
,,,0.06104,-3.2,
,,,0.06112,-3.2,
,,,0.061199997,6.0,
,,,0.061279997,4.4,
,,,0.061359998,2.4,
,,,0.06144,1.6,
,,,0.06152,1.6,
,,,0.0616,0.8,
,,,0.06168,0.8,
,,,0.061759997,0.8,
,,,0.061839998,-5.6,
,,,0.06192,-4.0,
,,,0.062,-3.2,
,,,0.06208,-3.2,
,,,0.06216,-2.4,
,,,0.062239997,-1.6,
,,,0.062319998,-1.6,
,,,0.0624,3.2,
,,,0.06248,2.4,
,,,0.06256,1.6,
,,,0.06264,0.8,
,,,0.06272,0.8,
,,,0.0628,0.8,
,,,0.06288,0.8,
,,,0.06296,-5.6,
,,,0.063039996,-4.0,
,,,0.06312,-3.2,
,,,0.0632,-2.4,
,,,0.06328,-2.4,
,,,0.06336,-1.6,
,,,0.063439995,-1.6,
,,,0.06352,2.4,
,,,0.063599996,2.4,
,,,0.06368,1.6,
,,,0.06376,0.8,
,,,0.06384,0.8,
,,,0.06392,0.8,
,,,0.063999996,0.8,
,,,0.06408,0.0,
,,,0.06416,-4.0,
,,,0.06424,-3.2,
,,,0.06432,-3.2,
,,,0.064399995,-2.4,
,,,0.06448,-2.4,
,,,0.064559996,-2.4,
,,,0.06464,-1.6,
,,,0.06472,0.8,
,,,0.0648,0.8,
,,,0.06488,0.0,
,,,0.064959995,0.0,
,,,0.06504,0.0,
,,,0.06512,0.0,
,,,0.0652,-0.8,
,,,0.06528,-0.8,
,,,0.065359995,-3.2,
,,,0.06544,-2.4,
,,,0.065519996,-2.4,
,,,0.0656,-2.4,
,,,0.06568,-2.4,
,,,0.06576,-1.6,
,,,0.06584,-1.6,
,,,0.065919995,0.8,
,,,0.066,0.0,
,,,0.06608,0.0,
,,,0.06616,0.0,
,,,0.06624,-0.8,
,,,0.066319995,-0.8,
,,,0.0664,-0.8,
,,,0.066479996,-8.8,
,,,0.06656,-8.8,
,,,0.06664,-7.2000003,
,,,0.06672,-6.4,
,,,0.0668,-5.6,
,,,0.066879995,-5.6,
,,,0.06696,18.4,
,,,0.06704,11.6,
,,,0.06712,8.400001,
,,,0.0672,6.8,
,,,0.06728,6.0,
,,,0.06736,5.2000003,
,,,0.067439996,5.2000003,
,,,0.06752,4.4,
,,,0.0676,-18.0,
,,,0.06768,-11.6,
,,,0.06776,-9.6,
,,,0.067839995,-8.8,
,,,0.06792,-8.0,
,,,0.067999996,-7.2000003,
,,,0.06808,-6.4,
,,,0.06816,13.2,
,,,0.06824,8.400001,
,,,0.06832,6.0,
,,,0.068399996,5.2000003,
,,,0.06848,4.4,
,,,0.06856,3.2,
,,,0.06864,3.2,
,,,0.06872,2.4,
,,,0.068799995,-8.8,
,,,0.06888,-6.4,
,,,0.068959996,-5.6,
,,,0.06904,-4.8,
,,,0.06912,-4.0,
,,,0.0692,-4.0,
,,,0.06928,-4.0,
,,,0.069359995,7.6,
,,,0.06944,5.2000003,
,,,0.06952,3.2,
,,,0.0696,2.4,
,,,0.06968,2.4,
,,,0.069759995,1.6,
,,,0.06984,1.6,
,,,0.069919996,-8.8,
,,,0.07,-5.6,
,,,0.07008,-4.0,
,,,0.07016,-3.2,
,,,0.07024,-3.2,
,,,0.070319995,-3.2,
,,,0.0704,-3.2,
,,,0.07048,5.2000003,
,,,0.07056,4.4,
,,,0.07064,2.4,
,,,0.070719995,1.6,
,,,0.0708,1.6,
,,,0.070879996,0.8,
,,,0.07096,0.8,
,,,0.07104,0.8,
,,,0.07112,-5.6,
,,,0.0712,-4.0,
,,,0.071279995,-3.2,
,,,0.07136,-3.2,
,,,0.07144,-3.2,
,,,0.07152,-3.2,
,,,0.0716,-3.2,
,,,0.071679994,2.4,
,,,0.07176,1.6,
,,,0.071839996,0.8,
,,,0.07192,0.0,
,,,0.072,0.0,
,,,0.07208,0.0,
,,,0.07216,0.0,
,,,0.072239995,-4.0,
,,,0.07232,-3.2,
,,,0.072399996,-3.2,
,,,0.07248,-3.2,
,,,0.07256,-3.2,
,,,0.07264,-3.2,
,,,0.07272,-3.2,
,,,0.072799996,-3.2,
,,,0.07288,0.8,
,,,0.07296,0.0,
,,,0.07304,0.0,
,,,0.07312,0.0,
,,,0.073199995,-0.8,
,,,0.07328,-0.8,
,,,0.073359996,-0.8,
,,,0.07344,-3.2,
,,,0.07352,-3.2,
,,,0.0736,-3.2,
,,,0.07368,-2.4,
,,,0.073759995,-2.4,
,,,0.07384,-2.4,
,,,0.07392,-2.4,
,,,0.074,-2.4,
,,,0.07408,0.8,
,,,0.074159995,0.0,
,,,0.07424,0.0,
,,,0.074319996,-0.8,
,,,0.0744,-0.8,
,,,0.07448,-0.8,
,,,0.07456,-0.8,
,,,0.07464,-3.2,
,,,0.074719995,-2.4,
,,,0.0748,-2.4,
,,,0.07488,-2.4,
,,,0.07496,-2.4,
,,,0.07504,-2.4,
,,,0.075119995,-2.4,
,,,0.0752,0.8,
,,,0.075279996,0.8,
,,,0.07536,0.0,
,,,0.07544,0.0,
,,,0.07552,0.0,
,,,0.0756,-0.8,
,,,0.075679995,-0.8,
,,,0.07576,-0.8,
,,,0.07584,-8.8,
,,,0.07592,-6.4,
,,,0.076,-5.6,
,,,0.076079994,-4.8,
,,,0.07616,-4.8,
,,,0.076239996,-4.0,
,,,0.07632,19.2,
,,,0.0764,11.6,
,,,0.07648,9.2,
,,,0.07656,7.6,
,,,0.076639995,6.8,
,,,0.07672,6.8,
,,,0.076799996,6.0,
,,,0.07688,-19.6,
,,,0.07696,-10.8,
,,,0.07704,-8.0,
,,,0.07712,-7.2000003,
,,,0.077199996,-6.4,
,,,0.07728,-5.6,
,,,0.07736,-5.6,
,,,0.07744,14.0,
,,,0.07752,10.0,
,,,0.077599995,7.6,
,,,0.07768,6.0,
,,,0.077759996,5.2000003,
,,,0.07784,4.4,
,,,0.07792,4.4,
,,,0.078,3.2,
,,,0.07808,-9.6,
,,,0.078159995,-6.4,
,,,0.07824,-5.6,
,,,0.07832,-4.8,
,,,0.0784,-4.0,
,,,0.07848,-4.0,
,,,0.078559995,-3.2,
,,,0.07864,8.400001,
,,,0.078719996,5.2000003,
,,,0.0788,4.4,
,,,0.07888,3.2,
,,,0.07896,2.4,
,,,0.07904,2.4,
,,,0.079119995,2.4,
,,,0.0792,-8.8,
,,,0.07928,-5.6,
,,,0.07936,-4.0,
,,,0.07944,-4.0,
,,,0.079519995,-3.2,
,,,0.0796,-3.2,
,,,0.079679996,-2.4,
,,,0.07976,6.0,
,,,0.07984,4.4,
,,,0.07992,2.4,
,,,0.08,2.4,
,,,0.080079995,1.6,
,,,0.08016,1.6,
,,,0.08024,0.8,
,,,0.08032,0.8,
,,,0.0804,-5.6,
,,,0.080479994,-4.0,
,,,0.08056,-3.2,
,,,0.080639996,-2.4,
,,,0.08072,-2.4,
,,,0.0808,-1.6,
,,,0.08088,-1.6,
,,,0.08096,3.2,
,,,0.081039995,2.4,
,,,0.08112,1.6,
,,,0.081199996,0.8,
,,,0.08128,0.8,
,,,0.08136,0.8,
,,,0.081439994,0.8,
,,,0.08152,-4.8,
,,,0.081599995,-4.8,
,,,0.08168,-3.2,
,,,0.08176,-3.2,
,,,0.08184,-2.4,
,,,0.08192,-2.4,
,,,0.081999995,-1.6,
,,,0.08208,-1.6,
,,,0.082159996,2.4,
,,,0.08224,1.6,
,,,0.08232,0.8,
,,,0.0824,0.0,
,,,0.08248,0.0,
,,,0.082559995,0.0,
,,,0.08264,0.0,
,,,0.08272,-4.0,
,,,0.0828,-3.2,
,,,0.08288,-3.2,
,,,0.082959995,-2.4,
,,,0.08304,-2.4,
,,,0.083119996,-2.4,
,,,0.0832,-2.4,
,,,0.08328,-1.6,
,,,0.08336,1.6,
,,,0.08344,0.8,
,,,0.083519995,0.0,
,,,0.0836,0.0,
,,,0.08368,0.0,
,,,0.08376,0.0,
,,,0.08384,0.0,
,,,0.083919995,-3.2,
,,,0.084,-2.4,
,,,0.084079996,-2.4,
,,,0.08416,-1.6,
,,,0.08424,-1.6,
,,,0.08432,-1.6,
,,,0.0844,-1.6,
,,,0.084479995,0.8,
,,,0.08456,0.8,
,,,0.08464,0.0,
,,,0.08472,0.0,
,,,0.0848,0.0,
,,,0.084879994,0.0,
,,,0.08496,0.0,
,,,0.085039996,-0.8,
,,,0.08512,-3.2,
,,,0.0852,-2.4,
,,,0.08528,-2.4,
,,,0.08536,-2.4,
,,,0.085439995,-2.4,
,,,0.08552,-2.4,
,,,0.085599996,20.800001,
,,,0.08568,11.6,
,,,0.08576,9.2,
,,,0.085839994,7.6,
,,,0.08592,6.8,
,,,0.085999995,6.0,
,,,0.08608,6.0,
,,,0.08616,-20.4,
,,,0.08624,-11.6,
,,,0.08632,-8.8,
,,,0.086399995,-7.2000003,
,,,0.08648,-6.4,
,,,0.086559996,-6.4,
,,,0.08664,-5.6,
,,,0.08672,14.8,
,,,0.086799994,10.8,
,,,0.08688,7.6,
,,,0.086959995,6.0,
,,,0.08704,5.2000003,
,,,0.08712,4.4,
,,,0.0872,4.4,
,,,0.08728,3.2,
,,,0.087359995,-10.8,
,,,0.08744,-6.4,
,,,0.087519996,-5.6,
,,,0.0876,-4.8,
,,,0.08768,-4.0,
